date,id (email address),Scores (out of 20)
2021-05-04 1:49,abs6537@psu.edu,4
2021-05-02 20:12,afs6058@psu.edu,6
2021-05-02 7:06,ajb7522@psu.edu,20
2021-05-02 0:20,ajr6536@psu.edu,16
2021-05-02 21:35,aml772@psu.edu,14
2021-05-03 19:39,aqa5910@psu.edu,5
2021-05-04 3:19,ath5305@psu.edu,5
2021-04-29 0:54,avg5920@psu.edu,13
2021-04-27 18:31,cfx5035@psu.edu,6
2021-05-05 1:14,dkz5086@psu.edu,17
2021-05-03 4:04,dmk6035@psu.edu,6
2021-05-04 20:26,drv5114@psu.edu,5
2021-05-04 8:16,dxb5632@psu..edu,8
2021-04-29 16:32,gvp5219@psu.edu,7
2021-05-04 21:35,hhm5044@psu.edu,7
2021-05-02 2:23,ivv5032@psu.edu,7
2021-04-29 2:46,jfl5813@psu.edu,16
2021-05-02 18:16,jfl5813@psu.edu,14
2021-04-29 10:30,jjl6624@psu.edu,20
2021-05-01 22:21,jsp45@psu.edu,20
2021-04-29 1:42,jzs6915@psu.edu,16
2021-04-30 3:50,kdg5285@psu.edu,17
2021-05-04 22:10,kqn5262@psu.edu,11
2021-05-04 22:20,krt5245@psu.edu,7
2021-05-04 22:31,krt5245@psu.edu,3
2021-05-01 22:18,llz5@psu.edu,20
2021-05-04 22:05,lmh6149@psu.edu,6
2021-04-29 20:41,lrm5496@psu.edu,10
2021-05-01 19:30,moa5484@psu.edu,9
2021-04-30 0:28,ncs5351@psu.edu,17
2021-04-29 20:54,oaw5026@psu.edu,6
2021-05-04 21:07,pjs5884@psu.edu,9
2021-04-29 20:23,pqs5479@psu.edu,12
2021-04-28 22:08,sfw5383@psu.edu,10
2021-04-30 18:05,sjh5646@psu.edu,4
2021-04-30 21:56,skg5585@psu.edu,18
2021-04-30 20:36,slh6222@psu.edu,19
2021-04-29 17:06,ssd5291@psu.edu,15
2021-05-02 6:08,szg5713@psu.edu,11
2021-04-27 11:25,tjr5727@psu.edu,20
2021-04-28 23:55,wxx5051@psu.edu,7
2021-05-05 0:13,wzl170a@psu.edu,8
2021-05-03 10:46,xqs5141@psu.edu,19
2021-05-03 18:56,xvw5296@psu.edu,15
2021-05-02 18:54,zzm5107@psu.edu,10
2021-04-28 23:37,Not provided,10
