qid,Question,Type,Stem,Option.1,Option.2,Option.3,Option.4,Option.5,Answers,Solution
1,A survey of a group's viewing habits over the last year revealed the following  information:<br><br>           (i)      28% watched gymnastics<br>           (ii)     29% watched baseball<br>           (iii)    19% watched soccer<br>           (iv)     14% watched gymnastics and baseball<br>           (v)      12% watched baseball and soccer<br>           (vi)     10% watched gymnastics and soccer<br>           (vii)     8% watched all three sports.<br><br>   Calculate the percentage of the group that watched none of the three sports during the last year.,radio,NA,24%,36%,41%,52%,60%,52%,"
Let G = viewer watched gymnastics, B = viewer watched baseball, S = viewer watched soccer.
Then we want to find
Pr ( G ?? B ?? S )       = 1 <U+2212> Pr ( G ?? B ?? S )
                    c
 = 1 <U+2212> Pr ( G ) + Pr ( B ) + Pr ( S ) <U+2212> Pr ( G ?? B ) <U+2212> Pr ( G ?? S ) <U+2212> Pr ( B ?? S ) + Pr ( G ?? B ?? S )
 = 1 <U+2212> ( 0.28 + 0.29 + 0.19 <U+2212> 0.14 <U+2212> 0.10 <U+2212> 0.12 + 0.08 ) = 1 <U+2212> 0.48 = 0.52"
2,"The probability that a visit to a primary care physician's (PCP) office results in neither lab work nor referral to a specialist is 35%. Of those coming to a PCP's office, 30% are referred to specialists and 40% require lab work.<br><br>   Calculate the probability that a visit to a PCP's office results in both lab work and referral to a specialist.",radio,NA,0.05,0.12,0.18,0.25,0.35,0.05,"
Let R = referral to a specialist and L = lab work. Then
P[ R ?? L] = P[ R] + P[ L] <U+2212> P[ R ?? L] = P[ R] + P[ L] <U+2212> 1 + P[( R ?? L)c ]
            = p[ R] + P[ L] <U+2212> 1 + P[ R c ?? L??] = 0.30 + 0.40 <U+2212> 1 + 0.35 = 0.05."
3,You are given \(P[ A \cup B] = 0.7\) and \(P[ A \cup B'] = 0.9\) .<br><br>   Calculate \(P[A]\).,radio,NA,0.2,0.3,0.4,0.6,0.8,0.6,"
First note
P [ A ?? B ] = P [ A] + P [ B ] <U+2212> P [ A ?? B ]
P A ?? B c = P [ A] + P B c <U+2212> P A ?? B c
Then add these two equations to get
                                           (
P [ A ?? B ] + P A ?? B c = 2 P [ A] + P [ B ] + P B c         ) <U+2212> ( P [ A ?? B] + P   A ?? Bc   )
0.7 + 0.9 = 2 P [ A] + 1 <U+2212> P   ( A ?? B ) ?? ( A ?? Bc )
1.6 = 2 P [ A] + 1 <U+2212> P [ A]
P [ A] = 0.6"
4,An urn contains 10 balls: 4 red and 6 blue. A second urn contains 16 red balls and an unknown number of blue balls. A single ball is drawn from each urn. The probability that both balls are the same color is 0.44.<br><br> Calculate the number of blue balls in the second urn.,radio,NA,4,20,24,44,64,4,"
For i = 1,2, let Ri = event that a red ball is drawn from urn i and let Bi = event that a blue ball is
drawn from urn i. Then, if x is the number of blue balls in urn 2,
0.44 = Pr[( R1 ?? R2 ) ( B1 ?? B2 )] = Pr[ R1 ?? R2 ] + Pr [ B1 ?? B2 ]
      = Pr [ R1 ] Pr [ R2 ] + Pr [ B1 ] Pr [ B2 ]
         4      16          6       x
      =                 +
        10 x + 16 10 x + 16
Therefore,
         32         3x        3 x + 32
2.2 =          +           =
       x + 16 x + 16 x + 16
2.2 x + 35.2 = 3 x + 32
0.8 x = 3.2
x=4"
5,"An auto insurance company has 10,000 policyholders. Each policyholder is classified as<br><br>           (i)     young or old;<br>           (ii)    male or female; and<br>           (iii)   married or single.<br><br>   Of these policyholders, 3000 are young, 4600 are male, and 7000 are married. The policyholders can also be classified as 1320 young males, 3010 married males, and 1400 young married persons. Finally, 600 of the policyholders are young married males.<br><br> Calculate the number of the company's policyholders who are young, female, and single.",radio,NA,280,423,486,880,896,880,"
Let N(C) denote the number of policyholders in classification C. Then
N(Young and Female and Single)
= N(Young and Female) <U+2013> N(Young and Female and Married)
= N(Young) <U+2013> N(Young and Male) <U+2013> [N(Young and Married) <U+2013> N(Young and Married                    and
Male)]
= 3000 <U+2013> 1320 <U+2013> (1400 <U+2013> 600) = 880."
6,"A public health researcher examines the medical records of a group of 937 men who died in 1999 and discovers that 210 of the men died from causes related to heart disease. Moreover, 312 of the 937 men had at least one parent who suffered from heart disease, and, of these 312 men, 102 died from causes related to heart disease.<br><br>   Calculate the probability that a man randomly selected from this group died of causes related to heart disease, given that neither of his parents suffered from heart disease.",radio,NA,0.115,0.173,0.224,0.327,0.514,0.173,"
Let
H = event that a death is due to heart disease
F = event that at least one parent suffered from heart disease
Then based on the medical records,
                   210 <U+2212> 102 108
P H ?? Fc =                       =
                       937          937
            937 <U+2212> 312 625
P Fc =                     =
                937          937
                       P H ?? Fc            108 625 108
and P H | F =   c
                                         =         =      = 0.173
                           P F   c
                                            937 937 625"
7,"An insurance company estimates that 40% of policyholders who have only an auto policy will renew next year and 60% of policyholders who have only a homeowners policy will renew next year. The company estimates that 80% of policyholders who have both an auto policy and a homeowners policy will renew at least one of those policies next year.<br><br>   Company records show that 65% of policyholders have an auto policy, 50% of policyholders have a homeowners policy, and 15% of policyholders have both an auto  policy and a homeowners policy.<br><br>   Using the company's estimates, calculate the percentage of policyholders that will renew at least one policy next year.",radio,NA,20%,29%,41%,53%,70%,53%,"
Let A = event that a policyholder has an auto policy and H = event that a policyholder has a
homeowners policy. Then,
 Pr ( A ?? H ) = 0.15
 Pr ( A ?? H c ) = Pr ( A ) <U+2212> Pr ( A ?? H ) = 0.65 <U+2212> 0.15 = 0.50
 Pr ( Ac ?? H ) = Pr ( H ) <U+2212> Pr ( A ?? H ) = 0.50 <U+2212> 0.15 = 0.35
and the portion of policyholders that will renew at least one policy is given by
0.4 Pr ( A ?? H c ) + 0.6 Pr ( Ac ?? H ) + 0.8 Pr ( A ?? H )
 = ( 0.4 )( 0.5 ) + ( 0.6 )( 0.35 ) + ( 0.8 )( 0.15 ) = 0.53     ( = 53% )"
8,"Among a large group of patients recovering from shoulder injuries, it is found that 22%  visit both a physical therapist and a chiropractor, whereas 12% visit neither of these. The probability that a patient visits a chiropractor exceeds by 0.14 the probability that a patient visits a physical therapist.<br><br>   Calculate the probability that a randomly chosen member of this group visits a physical therapist.",radio,NA,0.26,0.38,0.4,0.48,0.62,0.48,"
Let C = event that patient visits a chiropractor and T = event that patient visits a physical
therapist. We are given that
 Pr [C ] = Pr [T ] + 0.14
 Pr ( C ?? T ) = 0.22
 Pr ( C c ?? T c ) = 0.12
Therefore,
 0.88 = 1 <U+2212> Pr C c ?? T c = Pr [C ?? T ] = Pr [C ] + Pr [T ] <U+2212> Pr [C ?? T ]
       = Pr [T ] + 0.14 + Pr [T ] <U+2212> 0.22
       = 2 Pr [T ] <U+2212> 0.08
or
 P [T ] = ( 0.88 + 0.08 ) 2 = 0.48"
9," An insurance company examines its pool of auto insurance customers and gathers the following information:<br><br>            (i)      All customers insure at least one car.<br>            (ii)     70% of the customers insure more than one car.<br>            (iii)    20% of the customers insure a sports car.<br>            (iv)     Of those customers who insure more than one car, 15% insure a sports car.<br><br>    Calculate the probability that a randomly selected customer insures exactly one car and that car is not a sports car.",radio,NA,0.13,0.21,0.24,0.25,0.3,0.21,"
Let M = event that customer insures more than one car and S = event that customer insurers a
sports car. Then applying DeMorgan??s Law, compute the desired probability as:
 Pr ( M c ?? S c ) = Pr ( M ?? S )          = 1 <U+2212> Pr ( M ?? S ) = 1 <U+2212> Pr ( M ) + Pr ( S ) <U+2212> Pr ( M ?? S )
                                      c
 = 1 <U+2212> Pr ( M ) <U+2212> Pr ( S ) + Pr ( S M ) Pr ( M ) = 1 <U+2212> 0.70 <U+2212> 0.20 + ( 0.15 )( 0.70 ) = 0.205"
11, An actuary studying the insurance preferences of automobile owners makes the following conclusions:<br><br>            (i)      An automobile owner is twice as likely to purchase collision coverage as disability coverage.<br>            (ii)     The event that an automobile owner purchases collision coverage is independent of the event that he or she purchases disability coverage.<br>            (iii) The probability that an automobile owner purchases both collision and disability coverages is 0.15.<br><br>    Calculate the probability that an automobile owner purchases neither collision nor disability coverage.,radio,NA,0.18,0.33,0.48,0.67,0.82,0.33,"
Let C = Event that a policyholder buys collision coverage and D = Event that a policyholder
buys disability coverage. Then we are given that P[C ] = 2 P[ D] and P[C ?? D] = 0.15 .
By the independence of C and D,
0.15 = [C ?? D] = P[C ]P[ D] = 2 P[ D]2
 P[ D]2 = 0.15 / 2 = 0.075
 P[ D] = 0.075, P[C ] = 2 0.075.
Independence of C and D implies independence of Cc and Dc. Then
 P[C c ?? D c ] = P[C c ]P[ D c ] = (1 <U+2212> 2 0.075)(1 <U+2212> 0.075) = 0.33."
12," A doctor is studying the relationship between blood pressure and heartbeat abnormalities in her patients. She tests a random sample of her patients and notes their blood pressures (high, low, or normal) and their heartbeats (regular or irregular). She finds that:<br><br>           (i)     14% have high blood pressure.<br>            (ii)    22% have low blood pressure.<br>            (iii)   15% have an irregular heartbeat.<br>            (iv)    Of those with an irregular heartbeat, one-third have high blood pressure.<br>            (v)      Of those with normal blood pressure, one-eighth have an irregular heartbeat.<br><br>    Calculate the portion of the patients selected who have a regular heartbeat and low blood pressure.",radio,NA,2%,5%,8%,9%,20%,0.2,"
??Boxed?? numbers in the table below were computed.
                                                 High BP Low BP    Norm BP Total
                  Regular heartbeat              0.09         0.20 0.56    0.85
                  Irregular heartbeat            0.05         0.02 0.08    0.15
                  Total                          0.14         0.22 0.64    1.00
From the table, 20% of patients have a regular heartbeat and low blood pressure."
13," An actuary is studying the prevalence of three health risk factors, denoted by A, B, and C, within a population of women. For each of the three factors, the probability is 0.1 that a woman in the population has only this risk factor (and no others). For any two of the three factors, the probability is 0.12 that she has exactly these two risk factors (but not the other). The probability that a woman has all three risk factors, given that she has A and B, is 1/3.<br><br>    Calculate the probability that a woman has none of the three risk factors, given that she does not have risk factor A.",radio,NA,0.28,0.311,0.467,0.484,0.7,0.467,"
Let x be the probability of having all three risk factors.
 1                                P[ A ?? B ?? C]             x
   = P [ A ?? B ?? C | A ?? B] =                        =
 3                                   P [ A ?? B]         x + 0.12
It follows that
     1               1
 x = ( x + 0.12 ) = x + 0.04
     3               3
 2
   x = 0.04
 3
 x = 0.06
Now we want to find
                                 ( A?? B ??C)
                                                 c
                            P
    ( A?? B ??C)
                  c
 P                  |A c
                          =
                                    P Ac
                            1<U+2212> P[ A ?? B ?? C]
                         =
                                  1 <U+2212> P [ A]
                            1 <U+2212> 3 ( 0.10 ) <U+2212> 3 ( 0.12 ) <U+2212> 0.06
                         =
                               1 <U+2212> 0.10 <U+2212> 2 ( 0.12 ) <U+2212> 0.06
                            0.28
                         =          = 0.467
                            0.60"
14," In modeling the number of claims filed by an individual under an automobile policy during a three-year period, an actuary makes the simplifying assumption that for all integers \(n \geq 0, p(n + 1) = 0.2p(n)\) where \(p(n)\) represents the probability that the policyholder files \(n\) claims during the period.<br> <br>    Under this assumption, calculate the probability that a policyholder files more than one claim during the period.",radio,NA,0.04,0.16,0.2,0.8,0.96,0.04,"
                                                            k
       1         11                111                    1
 pk = pk <U+2212>1 =           pk <U+2212> 2 =            pk <U+2212>3 =     =     p0    k ??0
       5         55                555                    5
           ??         ??          k
                           1                p0        5
1 = 1 = ?? pk = ??                   p0 =           = p0 , p0 = 4 / 5
                           5                   1 4
          k =0      k =0
                                          1<U+2212>
                                               5
Therefore, P[N > 1] = 1 <U+2013> P[N ??1] = 1 <U+2013> (4/5 + 4/5 x 1/5) = 1 <U+2013> 24/25 = 1/25 = 0.04 ."
15," An insurer offers a health plan to the employees of a large company. As part of this plan, the individual employees may choose exactly two of the supplementary coverages A, B, and C, or they may choose no supplementary coverage. The proportions of the company's employees that choose coverages A, B, and C are 1/4, 1/3, and 5/12 respectively.<br><br>    Calculate the probability that a randomly chosen employee will choose no supplementary coverage.",radio,NA,0,47/144, 1/2,97/144, 7/9, 1/2,"
Let x be the probability of choosing A and B, but not C, y the probability of choosing A and C,
but not B, z the probability of choosing B and C, but not A.
We want to find w = 1 <U+2013> (x + y + z).
We have x + y = 1/4, x + z = 1/3, y + z = 5/12.
Adding these three equations gives
                                       1 1 5
( x + y) + ( x + z) + ( y + z) = + +
                                       4 3 12
 2( x + y + z) = 1
               1
 x+ y+z =
               2
                                  1 1
 w = 1<U+2212> ( x + y + z) = 1<U+2212>           = .
                                  2 2
Alternatively the three equations can be solved to give x = 1/12, y = 1/6, z =1/4 again leading to
             1 1 1               1
 w = 1<U+2212>        + +           =
            12 6 4               2"
16," An insurance company determines that N, the number of claims received in a week, is a random variable with \(P[N = n] = \frac{1}{2^{n+1}}\) where \(n \geq 0\). The company also determines that the number of claims received in a given week is independent of the number of claims received in any other week.<br><br>   Calculate the probability that exactly seven claims will be received during a given two-week period.",radio,NA,1/256,1/128,7/512,1/64,1/32,1/64,"
Let N1 and N2 denote the number of claims during weeks one and two, respectively. Then since
they are independent,
 P [ N1 + N 2 = 7 ] = ?? n =0 P [ N1 = n ] Pr [ N 2 = 7 <U+2212> n ]
                            7
                                      1           1
                       = ?? n =0
                               7
                                       n +1       8<U+2212> n
                                     2          2
                                    1
                       = ?? n =0 9
                               7
                                    2
                           8        1       1
                       = 9 = 6 =
                          2        2       64"
17, An insurance company pays hospital claims. The number of claims that include emergency room or operating room charges is 85% of the total number of claims. The number of claims that do not include emergency room charges is 25% of the total number of claims. The occurrence of emergency room charges is independent of the occurrence of operating room charges on hospital claims.<br><br>    Calculate the probability that a claim submitted to the insurance company includes operating room charges.,radio,NA,0.1,0.2,0.25,0.4,0.8,0.4,"
Let O = event of operating room charges and E = event of emergency room charges. Then
0.85 = P ( O ?? E ) = P ( O ) + P ( E ) <U+2212> P ( O ?? E )
= P (O ) + P ( E ) <U+2212> P (O ) P ( E )     ( Independence )
              ( )
Because P E = 0.25 = 1 <U+2212> P ( E ) , P( E ) = 0.75 ,
                  c
0.85 = P ( O ) + 0.75 <U+2212> P ( O )( 0.75 )
 P(O)(1 <U+2212> 0.75) = 0.85 <U+2212> 0.75 = 0.10
 P(O) = 0.10 / 0.25 = 0.40."
18," Two instruments are used to measure the height, h, of a tower. The error made by the less accurate instrument is normally distributed with mean 0 and standard deviation 0.0056h. The error made by the more accurate instrument is normally distributed with mean 0 and standard deviation 0.0044h.<br><br> The errors from the two instruments are independent of each other.<br><br>    Calculate the probability that the average value of the two measurements is within 0.005h of the height of the tower.",radio,NA,0.38,0.47,0.68,0.84,0.9,0.84,"
Let X1 and X2 denote the measurement errors of the less and more accurate instruments,
respectively. If N ( ?? , ?? ) denotes a normal random variable then
 X 1 N (0, 0.0056h), X 2 N (0, 0044h) and they are independent. It follows that
      X1 + X 2             0.00562 h 2 + 0.00442 h 2
Y=                  N (0,                                 = 0.00356h) . Therefore,
         2                                 4
                                           0.005h <U+2212> 0           0.005h <U+2212> 0
 P (<U+2212>0.005h ?? Y ?? 0.005h) = P <U+2212>                         ??Z??
                                           0.00356h             0.00356h
= P (<U+2212>1.4 ?? Z ?? 1.4) = P ( Z ?? 1.4) <U+2212> [1 <U+2212> P( Z ?? 1.4)] = 2(0.9192) <U+2212> 1 = 0.84."
19," An auto insurance company insures drivers of all ages. An actuary compiled the following statistics on the company's insured drivers: <p>
<style type=""text/css"">
table{
 margin:auto; width:40%       
}
th {padding-right:5px;}
</style>
<table border=""1"" margin:auto>
      <tr align= center>
        <th>Age of <br>Driver</th>
        <th style=""text-align: center"">Probability <br>of Accident</th> <th style=""text-align: center"">Portion of Company??s<br> Insured Drivers </th>
      </tr>
      <tr align=center>
        <td>16-20<br>21-30<br>31-65<br>66-99<br></td>
        <td>0.06<br>0.03<br>0.02<br>0.04<br></td>
        <td>0.08<br>0.15<br>0.49<br>0.28<br></td>
</table><p>
  A randomly selected driver that the company insures has an accident.<br><br> Calculate the probability that the driver was age 16-20.",radio,NA,0.13,0.16,0.19,0.23,0.4,0.16,"
Apply Bayes?? Formula. Let
 A = Event of an accident
 B1 = Event the driver??s age is in the range 16-20
 B2 = Event the driver??s age is in the range 21-30
 B3 = Event the driver??s age is in the range 30-65
 B4 = Event the driver??s age is in the range 66-99
Then
                                                 P ( A B1 ) P ( B1 )
 P ( B1 A ) =
               P ( A B1 ) P ( B1 ) + P ( A B2 ) P ( B2 ) + P ( A B3 ) P ( B3 ) + P ( A B4 ) P ( B4 )
         =
                                          ( 0.06 )( 0.08)                             = 0.1584
            ( 0.06 )( 0.08) + ( 0.03)( 0.15) + ( 0.02 )( 0.49 ) + ( 0.04 )( 0.28)"
20," An insurance company issues life insurance policies in three separate categories: standard, preferred, and ultra-preferred. Of the company's policyholders, 50% are standard, 40% are preferred, and 10% are ultra-preferred. Each standard policyholder has probability 0.010 of dying in the next year, each preferred policyholder has probability 0.005 of dying in the next year, and each ultra-preferred policyholder has probability 0.001 of dying in the next year.<br><br>  A policyholder dies in the next year.<br><br>    Calculate the probability that the deceased policyholder was ultra-preferred.",radio,NA,0.0001,0.001,0.0071,0.0141,0.2817,0.0141,"
Let
S = Event of a standard policy
F = Event of a preferred policy
U = Event of an ultra-preferred policy
D = Event that a policyholder dies
Then
                                      P [ D | U ] P [U ]
P [U | D ] =
               P [ D | S ] P [ S ] + P [ D | F ] P [ F ] + P [ D | U ] P [U ]
           =
                                    ( 0.001)( 0.10 )
              ( 0.01)( 0.50 ) + ( 0.005)( 0.40 ) + ( 0.001)( 0.10 )
           = 0.0141"
21," Upon arrival at a hospital's emergency room, patients are categorized according to their condition as critical, serious, or stable. In the past year:<br><br>            (i)    10% of the emergency room patients were critical;<br>            (ii)   30% of the emergency room patients were serious;<br>            (iii)  the rest of the emergency room patients were stable;<br>            (iv)   40% of the critical patients died;<br>            (vi)   10% of the serious patients died; and<br>            (vii)  1% of the stable patients died.<br><br>    Given that a patient survived, calculate the probability that the patient was categorized as  serious upon arrival.",radio,NA,0.06,0.29,0.3,0.39,0.64,0.29,"
P Seri. Surv.
                                      P Surv. Seri. P [Seri.]
=
   P Surv. Crit. P [ Crit.] + P Surv. Seri. P [Seri.] + P Surv. Stab. P [Stab.]
=
                   ( 0.9 )( 0.3)                    = 0.29
  ( 0.6 )( 0.1) + ( 0.9 )( 0.3) + ( 0.99 )( 0.6 )"
22," A health study tracked a group of persons for five years. At the beginning of the study, 20% were classified as heavy smokers, 30% as light smokers, and 50% as nonsmokers.<br><br>   Results of the study showed that light smokers were twice as likely as nonsmokers to die during the five-year study, but only half as likely as heavy smokers.<br><br>     A randomly selected participant from the study died during the five-year period.<br><br>   Calculate the probability that the participant was a heavy smoker.",radio,NA,0.2,0.25,0.35,0.42,0.57,0.42,"
Let H = heavy smoker, L = light smoker, N = non-smoker, D = death within five-year period.
                                                                         1
We are given that P[ D | L] = 2 P[ D | N ] and P[ D | L] = P[ D | H ]
                                                                         2
Therefore,
                                       P D H P[H ]
P H D =
                P D N P [ N ] + P D L P [ L] + P D H P [ H ]
                        2 P D L ( 0.2 )                                       0.4
=                                                                   =                   = 0.42
   1                                                                   0.25 + 0.3 + 0.4
     P D L ( 0.5 ) + P D L ( 0.3) + 2 P D L ( 0.2 )
   2"
23," An actuary studied the likelihood that different types of drivers would be involved in at least one collision during any one-year period. The results of the study are:<p>
<style type=""text/css"">
table{
 margin:auto; width:40%       
}
th {padding-right:5px;}
</style>
<table border=""1"" margin:auto>
      <tr align =center>
        <th align = left>Type of <br>Driver</th>
        <th style=""text-align: center"">Percentage of<br>all drivers</th> <th style=""text-align: center"">Probability of <br> at least one <br>collision</th>
      </tr>
      <tr align=center>
        <td align = left>Teen<br>Young adult<br>Midlife<br>Senior<br></td>
        <td>8%<br>16%<br>45%<br>31%<br></td>
        <td>0.15<br>0.08<br>0.04<br>0.05<br></td>
      <tr align=center>
      <td align = left>Total</td>
      <td>100%</td>
      <td></td>
      </tr>
</table><p>

Given that a driver has been involved in at least one collision in the past year, calculate the probability that the driver is a young adult driver.",radio,NA,0.06,0.16,0.19,0.22,0.25,0.22,"
Let
C = Event of a collision
T = Event of a teen driver
Y = Event of a young adult driver
M = Event of a midlife driver
S = Event of a senior driver
Then,
                                         P[C Y ]P[Y ]
P[Y | C ] =
             P[C T ]P[T ] + P[C Y ]P[Y ] + P[C M ]P[ M ] + P[C S ]P[ S ]
                                   (0.08)(0.16)
     =                                                                   = 0.22.
       (0.15)(0.08) + (0.08)(0.16) + (0.04)(0.45) + (0.05)(0.31)"
24," The number of injury claims per month is modeled by a random variable \(N\) with \(P[N = n] = \frac{1}{(n+1)(n+2)}\), for nonnegative integers, \(n\).<br><br>Calculate the probability of at least one claim during a particular month, given that there have been at most four claims during that month.",radio,NA,  1/3, 2/5, 1/2, 3/5, 5/6, 2/5,"
                        P [1 ?? N ?? 4]        1 1       1     1      1 1 1         1   1
P N ??1 N ?? 4 =                           =    + +        +            + + +         +
                          P [ N ?? 4]         6 12 20 30             2 6 12 20 30
                           10 + 5 + 3 + 2        20 2
                      =                       =     =
                        30 + 10 + 5 + 3 + 2 50 5"
25, A blood test indicates the presence of a particular disease 95% of the time when the disease is actually present. The same test indicates the presence of the disease 0.5% of the time when the disease is not actually present. One percent of the population actually  has the disease.<br><br>    Calculate the probability that a person actually has the disease given that the test indicates  the presence of the disease.,radio,NA,0.324,0.657,0.945,0.95,0.995,0.657,"
Let     Y = positive test result
D = disease is present
Then,
                        P[Y | D]P[ D]                           (0.95)(0.01)
P[ D | Y ] =                                        =                               = 0.657.
             P[Y | D]P[ D] + P[Y | D ]P[ D ] (0.95)(0.01) + (0.005)(0.99)
                                           c      c"
26," The probability that a randomly chosen male has a blood circulation problem is 0.25.  Males who have a blood circulation problem are twice as likely to be smokers as those who do not have a blood circulation problem.<br><br>    Calculate the probability that a male has a blood circulation problem, given that he is a smoker.",radio,NA, 1/4, 1/3, 2/5, 1/2, 2/3, 2/5,"
Let:
S = Event of a smoker
C = Event of a circulation problem
Then we are given that P[C] = 0.25 and P[S C] = 2 P[S Cc]
Then,,
                        P[ S | C ]P[C ]
P[C | S ] =
             P[ S | C ]P[C ] + P[ S | C c ]P[C c ]
                     2 P[ S | C c ]P[C ]                   2(0.25)         2     2
     =                                              =                  =      =
       2 P[ S | C ]P[C ] + P[ S | C ](1 <U+2212> P[C ]) 2(0.25) + 0.75 2 + 3 5
                  c                   c"
27," A study of automobile accidents produced the following data:<p>
<style type=""text/css"">
table{
 margin:auto; width:40%       
}
th {padding-right:5px;}
</style>
<table border=""1"" margin:auto frame=void>
      <tr align =center>
        <th align = left>Model <br>year</th>
        <th style=""text-align: center"">Proportion of<br>all vehicles</th> <th style=""text-align: center"">Probability of <br> involvement <br>in an acciedent</th>
      </tr>
      <tr align=center>
        <td align = left>2014<br>2013<br>2012<br>Other<br></td>
        <td>0.16<br>0.18<br>0.20<br>0.46<br></td>
        <td>0.05<br>0.02<br>0.03<br>0.04<br></td>
</table><br><br>

   An automobile from one of the model years 2014, 2013, and 2012 was involved in an accident.<br><br> Calculate the probability that the model year of this automobile is 2014.",radio,NA,0.22,0.3,0.33,0.45,0.5,0.45,"
Let B, C, and D be the events of an accident occurring in 2014, 2013, and 2012, respectively.
Let A = B ?? C ?? D .
                                                                     P[ A B]P[ B]
                                  P[ B | A] =
                                                P[ A B][ P[ B] + P[ A C ]P[C ] + P[ A D]P[ D]
Use Bayes?? Theorem
                                                              (0.05)(0.16)
                                       =                                                = 0.45.
                                          (0.05)(0.16) + (0.02)(0.18) + (0.03)(0.20)"
28," A hospital receives 1/5 of its flu vaccine shipments from Company X and the remainder of its shipments from other companies. Each shipment contains a very large number of vaccine vials.<br><br>  For Company X's shipments, 10% of the vials are ineffective. For every other company, 2% of the vials are ineffective. The hospital tests 30 randomly selected vials from a shipment and finds that one vial is ineffective.<br><br>  Calculate the probability that this shipment came from Company X.",radio,NA,0.1,0.14,0.37,0.63,0.86,0.1,"
Let
C = Event that shipment came from Company X
I = Event that one of the vaccine vials tested is ineffective
                                        P [ I | C ] P [C ]
Then, P [C | I ] =                                                      .
                           P [ I | C ] P [C ] + P I | C c P C c
Now
            1
 P [C ] =
            5
                                    1 4
 P C c = 1 <U+2212> P [C ] = 1 <U+2212>              =
                                    5 5
 P [ I | C ] = ( 130 ) ( 0.10 )( 0.90 ) = 0.141
                                         29
 P I | C c = ( 130 ) ( 0.02 )( 0.98 ) = 0.334
                                            29
Therefore,
 P [C | I ] =
                             ( 0.141)(1/ 5)                = 0.096 .
               ( 0.141)(1/ 5) + ( 0.334 )( 4 / 5)"
29, The number of days that elapse between the beginning of a calendar year and the moment a high-risk driver is involved in an accident is exponentially distributed. An insurance company expects that 30% of high-risk drivers will be involved in an accident during the first 50 days of a calendar year.<br><br>    Calculate the portion of high-risk drivers are expected to be involved in an accident during the first 80 days of a calendar year.,radio,NA,0.15,0.34,0.43,0.57,0.66,0.43,"
Let T denote the number of days that elapse before a high-risk driver is involved in an accident.
Then T is exponentially distributed with unknown parameter ??. We are given that
                           50
0.3 = P[T ?? 50] = ?? ?? e <U+2212> ??t dt = <U+2212>e <U+2212> ??t           50
                                                       = 1 <U+2212> e <U+2212>50 ?? .
                                                    0
                            0
                   =50 ??
Therefore, e              = 0.7 and ?? = <U+2212>(1/ 50) ln(0.7).
Then,
                  80
 P[T ?? 80] = ?? ?? e <U+2212> ??t dt = <U+2212>e <U+2212> ??t        80
                                                = 1 <U+2212> e <U+2212>80 ??
                   0
                                            0                  = 1 <U+2013> e<U+2013>80??
       = 1 <U+2212> e(80/50)ln(0.7) = 1 <U+2212> 0.78/5 = 0.435."
30, An actuary has discovered that policyholders are three times as likely to file two claims as to file four claims.<br><br>The number of claims filed has a Poisson distribution.<br><br>   Calculate the variance of the number of claims filed.,radio,NA,\(\frac{1}{\sqrt{3}}\),1,\(\sqrt{2}\),2,4,2,"
                                                                               e<U+2212>?? ?? 2                     e<U+2212>?? ?? 4
Let N be the number of claims filed. We are given P[ N = 2] =                          = 3P[ N = 4] = 3            .
                                                                                  2!                         4!
Then,
 1 2 3 4
   ?? = ?? or ?? 2 = 4 or ?? = 2 , which is the variance of N.
 2        24"
31," A company establishes a fund of 120 from which it wants to pay an amount, C, to any of  its 20 employees who achieve a high performance level during the coming year. Each employee has a 2% chance of achieving a high performance level during the coming year. The events of different employees achieving a high performance level during the coming year are mutually independent.<br><br>    Calculate the maximum value of C for which the probability is less than 1% that the fund will be inadequate to cover all payments for high performance.",radio,NA,24,30,40,60,120,60,"
Let X denote the number of employees who achieve the high performance level. Then X follows
a binomial distribution with parameters n = 20 and p = 0.02. Now we want to determine x such
that P[X > x] < 0.01 or equivalently 0.99 ?? P [ X ?? x ] = ?? k =0
                                                                          x
                                                                            ( ) ( 0.02 ) ( 0.98)
                                                                              20
                                                                              k
                                                                                          k         20 <U+2212> k
The first three probabilities (at 0, 1, and 2) are 0.668, 0.272, and 0.053. The total is 0.993 and so
the smallest x that has the probability exceed 0.99 is 2. Thus C = 120/2 = 60."
32," A large pool of adults earning their first driver's license includes 50% low-risk drivers, 30% moderate-risk drivers, and 20% high-risk drivers. Because these drivers have no  prior driving record, an insurance company considers each driver to be randomly selected  from the pool.<br><br> This month, the insurance company writes four new policies for adults earning their first driver's license.<br><br>    Calculate the probability that these four will contain at least two more high-risk drivers than low-risk drivers.",radio,NA,0.006,0.012,0.018,0.049,0.073,0.049,"
Let
X = number of low-risk drivers insured
Y = number of moderate-risk drivers insured
Z = number of high-risk drivers insured
f(x, y, z) = probability function of X, Y, and Z
Then f is a trinomial probability function, so
 P [ z ?? x + 2] = f ( 0, 0, 4 ) + f (1, 0,3) + f ( 0,1,3) + f ( 0, 2, 2 )
                                                                             4!
                = ( 0.20 ) + 4 ( 0.50 )( 0.20 ) + 4 ( 0.30 )( 0.20 ) +            ( 0.30 ) ( 0.20 )
                           4                     3                      3                 2         2
                                                                            2!2!
                = 0.0488"
33," The loss due to a fire in a commercial building is modeled by a random variable X with density function <br><br> $$ f(x) = \begin{cases}
0.005(20-x), 0\lt x\lt 20 \\
0, \text{otherwise.}
\end{cases} $$  <br><br> Given that a fire loss exceeds 8, calculate the probability that it exceeds 16.",radio,NA,  1/25, 1/9, 1/8, 1/3, 3/7, 1/9,"
                                                          1
 P [ X > x] = ??
                 20
                    0.005 ( 20 <U+2212> t ) dt = 0.005 20t <U+2212> t 2        20
                                                                 x
                 x                                        2
                                   1 2                              1
 = 0.005 400 <U+2212> 200 <U+2212> 20 x +          x = 0.005 200 <U+2212> 20 x + x 2
                                   2                                2
where 0 < x < 20. Therefore,
                          P [ X > 16] 200 <U+2212> 20 (16 ) + 1 2 (16 )
                                                                       2
                                                                             8 1
 P X > 16 X > 8 =                        =                                =      = .
                          P [ X > 8]        200 <U+2212> 20 ( 8 ) + 1 ( 8 )
                                                                     2
                                                                            72 9
                                                              2"
34," The lifetime of a machine part has a continuous distribution on the interval (0, 40) with probability density function \(f(x)\), where \(f(x)\) is proportional to \((10+x)^{-2}\) on the interval.<br><br> Calculate the probability that the lifetime of the machine part is less than 6.",radio,NA,0.04,0.15,0.47,0.53,0.94,0.47,"
We know the density has the form C (10 + x ) for 0 < x < 40 (equals zero otherwise). First,
                                                         <U+2212>2
determine the proportionality constant C.
      40                                      40
                                                    C C           2
1 = ?? C (10 + x ) dx = <U+2212> C (10 + x) <U+2212>1 = <U+2212> = C
                     <U+2212>2
      0                                       0     10 50 25
So C = 25/2 or 12.5. Then, calculate the probability over the interval (0, 6):
        6                                    <U+2212>1 6            1 1
12.5?? (10 + x ) dx = <U+2212>12.5 (10 + x )
                  <U+2212>2
                                                   = 12.5        <U+2212>      = 0.47 .
        0                                        0          10 16"
36," A group insurance policy covers the medical claims of the employees of a small company. The value, \(V\), of the claims made in one year is described by<br> $$V = 100,000Y$$ <br> where \(Y\) is a random variable with density function<br> $$ f(y) = \begin{cases}
k(1-y)^4, 0\lt y\lt 1 \\
0, \text{otherwise.}
\end{cases} $$<br>   where \(k\) is a constant.<br><br>    Calculate the conditional probability that \(V\) exceeds 40,000, given that \(V\) exceeds 10,000.",radio,NA,0.08,0.13,0.17,0.2,0.51,0.13,"
To determine k,
          1
                                k                  k
1 = 1 = ?? k (1 <U+2212> y ) dy = <U+2212>        (1 <U+2212> y ) 01 = , so k = 5
                      4                    5
          0
                                5                  5
We next need to find P[V > 10,000] = P[100,000 Y > 10,000] = P[Y > 0.1], which is
 1
 ?? 5 (1 <U+2212> y ) dy = <U+2212> (1 <U+2212> y )
             4                5 1
                                      = 0.95 = 0.59 and P[V > 40,000] which is
                                0.1
0.1
 1
 ?? 5 (1 <U+2212> y ) dy = <U+2212> (1 <U+2212> y )
             4                 5 1
                                      = 0.65 = 0.078 . Then,
                                 0.4
0.4
                                       P[V > 40, 000 ?? V > 10, 000] P[V > 40, 000] 0.078
 P[V > 40, 000 | V > 10, 000] =                                             =                =     = 0.132.
                                               P[V > 10, 000]                 P[V > 10, 000] 0.590"
37," The lifetime of a printer costing 200 is exponentially distributed with mean 2 years. The manufacturer agrees to pay a full refund to a buyer if the printer fails during  the first year following its purchase, a one-half refund if it fails during the second year, and no refund for failure after the second year.<br><br>    Calculate the expected total amount of refunds from the sale of 100 printers.",radio,NA,"6,321","7,358","7,869","10,256","12,642","10,256","
Let ?? denote printer lifetime. The distribution function is F (t ) = 1 <U+2212> e <U+2212> t /2 . The probability of
failure in the first year is F(1) = 0.3935 and the probability of failure in the second year is F(2) <U+2013>
F(1) = 0.6321 <U+2013> 0.3935 = 0.2386. Of 100 printers, the expected number of failures is 39.35 and
23.86 for the two periods. The total expected cost is 200(39.35) + 100(23.86) = 10,256."
38," An insurance company insures a large number of homes. The insured value, \(X\), of a randomly selected home is assumed to follow a distribution with density function<br>  $$ f(x) = \begin{cases}
3x^{-4}, x \gt 1 \\
0, \text{otherwise.}
\end{cases} $$<br>  Given that a randomly selected home is insured for at least 1.5, calculate the probability that it is insured for less than 2.",radio,NA,0.578,0.684,0.704,0.829,0.875,0.578,"
                                                               x                x
The distribution function is F ( x) = P[ X ?? x] = ?? 3t <U+2212>4 dt = <U+2212>t <U+2212>3 = 1 <U+2212> x <U+2212>3 . Then,
                                                              1                 1
                         P [ ( X < 2) and ( X ?? 1.5) ]          P[ X < 2] <U+2212> Pr[X < 1.5]
 P[ X < 2 | X ?? 1.5] =                                      =
                                     P [ X ?? 1.5]                      Pr [ X ?? 1.5]
          F (2) <U+2212> F (1.5) (1 <U+2212> 2<U+2212>3 ) <U+2212> (1 <U+2212> 1.5<U+2212>3 )         <U+2212>1/ 8 + 8 / 27        37
       =                  =                     <U+2212>3
                                                         =                     =     = 0.578
            1 <U+2212> F (1.5)            1 <U+2212> (1 <U+2212> 1.5 )                 8 / 27          64"
39," A company prices its hurricane insurance using the following assumptions:<br><br>             (i)     In any calendar year, there can be at most one hurricane.<br>             (ii)    In any calendar year, the probability of a hurricane is 0.05.<br>             (iii)   The numbers of hurricanes in different calendar years are mutually independent.<br><br>    Using the company's assumptions, calculate the probability that there are fewer than 3 hurricanes in a 20-year period.",radio,NA,0.06,0.19,0.38,0.62,0.92,0.92,"
The number of hurricanes has a binomial distribution with n = 20 and p = 0.05. Then
P[ X < 3] = 0.9520 + 20(0.95)19 (0.05) + 190(0.95)18 (0.05) 2 = 0.9245."
40," An insurance policy pays for a random loss \(X\) subject to a deductible of \(C\), where \(0 \lt C \lt 1\) . The loss amount is modeled as a continuous random variable with density function<br> $$ f(x) = \begin{cases}
2x,  0 \lt x \lt 1 \\
0, \text{otherwise.}
\end{cases} $$  <br><br> Given a random loss \(X\), the probability that the insurance payment is less than 0.5 is equal to 0.64.<br><br>  Calculate \(C\).",radio,NA,0.1,0.3,0.4,0.6,0.8,0.3,"
Denote the insurance payment by the random variable Y. Then
      0         if 0 < X ?? C
Y=
       X <U+2212> C if C < X < 1
We are given that
                                              0.5 + C               0.5 + C
0.64 = P[Y < 0.5] = P[0 < X < 0.5 + C ] = ??           2 x dx = x 2          = (0.5 + C ) 2 .
                                             0                      0
The quadratic equation has roots at C = 0.3 and <U+2013>1.3. Because C must be between 0 and 1, the
solution is C = 0.3."
41," A study is being conducted in which the health of two independent groups of ten policyholders is being monitored over a one-year period of time. Individual participants in the study drop out before the end of the study with probability 0.2 (independently of the other participants).<br><br>    Calculate the probability that at least nine participants complete the study in one of the two groups, but not in both groups?",radio,NA,0.096,0.192,0.235,0.376,0.469,0.469,"
The number completing the study in a single group is binomial (10,0.8). For a single group the
probability that at least nine complete the study is ( 10   9 ) ( 0.8 ) ( 0.2 ) + ( 10 ) ( 0.8 ) = 0.376
                                                                        9           10          10
The probability that this happens for one group but not the other is 0.376(0.624) + 0.624(0.376)
= 0.469."
42," For Company A there is a 60% chance that no claim is made during the coming year. If one or more claims are made, the total claim amount is normally distributed with mean 10,000 and standard deviation 2,000.<br><br>    For Company B there is a 70% chance that no claim is made during the coming year. If one or more claims are made, the total claim amount is normally distributed with mean  9,000 and standard deviation 2,000.<br><br> The total claim amounts of the two companies are independent.<br><br>    Calculate the probability that, in the coming year, Company B's total claim amount will exceed Company A's total claim amount.",radio,NA,0.18,0.185,0.217,0.223,0.24,0.223,"
There are two situations where Company B??s total exceeds Company A??s. First, Company B has
at least one claim and Company A has no claims. This probability is 0.3(0.6) = 0.18. Second,
both have claims. This probability is 0.3(0.4) = 0.12. Given that both have claims, the
distribution of B??s claims minus A??s claims is normal with mean 9,000 <U+2013> 10,000 = <U+2013>1,000 and
standard deviation     2, 0002 + 2, 0002 = 2,828.43. The probability that the difference exceeds
                                                                             0 <U+2212> (<U+2212>1, 000)
zero is the probability that a standard normal variable exceeds                                 = 0.354. The
                                                                               2,828.43
probability is 1 <U+2013> 0.638 = 0.362. The probability of the desired event is 0.18 + 0.12(0.362) =
0.223."
43, A company takes out an insurance policy to cover accidents that occur at its  manufacturing plant. The probability that one or more accidents will occur during any given month is 0.60. The numbers of accidents that occur in different months are mutually independent.<br><br>    Calculate the probability that there will be at least four months in which no accidents occur before the fourth month in which at least one accident occurs.,radio,NA,0.01,0.12,0.23,0.29,0.41,0.29,"
One way to view this event is that in the first seven months there must be at least four with no
accidents. These are binomial probabilities:
()4 0.4 0.6 + 5 0.4 0.6 + 6 0.4 0.6 + 7 0.4
  7      4    3
                    ()
                     7       5        2
                                           ()
                                            7        6
                                                              ()
                                                               7      7
 = 0.1935 + 0.0774 + 0.0172 + 0.0016 = 0.2897.
Alternatively, consider a negative binomial distribution where K is the number of failures before
the fourth success (no accidents). Then
 P[ K < 4] = 0.44 + ( 14 ) 0.44 0.6 + ( 52 ) 0.44 0.62 + ( 36 ) 0.44 0.63 = 0.2898"
44," An insurance policy pays 100 per day for up to three days of hospitalization and 50 per day for each day of hospitalization thereafter.<br><br>    The number of days of hospitalization, \(X\), is a discrete random variable with probability function<br>  $$ P[X=k] = \begin{cases}
\frac{6-k}{15},  k=1,2,3,4,5 \\
0, \text{otherwise.}
\end{cases} $$  <br>   Determine the expected payment for hospitalization under this policy.",radio,NA,123,210,220,270,367,220,"
The probabilities of 1, 2, 3, 4, and 5 days of hospitalization are 5/15, 4/15, 3/15, 2/15, and 1/15
respectively. The payments are 100, 200, 300, 350, and 400 respectively. The expected value is
[100(5) + 200(4) + 300(3) + 350(2) + 400(1)]/15 = 220."
45," Let \(X\) be a continuous random variable with density function<br>  $$ f(x) = \begin{cases}
\frac{|x|}{10},  -2 \leq x \leq 4 \\
0, \text{otherwise.}
\end{cases} $$ <br><br>  Calculate the expected value of \(X\).",radio,NA,  1/5, 3/5,1, 28/15, 12/5, 28/15,"
                                                          0         4
             0      <U+2212>x              4    x             x3        x3        8 64 56 28
 E(X ) = ?? x             dx + ?? x dx = <U+2212>                      +        =<U+2212> +         =         =
             <U+2212>2     10             0    10             30 <U+2212>2 30 0         30 30 30 15"
46," A device that continuously measures and records seismic activity is placed in a remote region. The time, \(T\), to failure of this device is exponentially distributed with mean 3 years. Since the device will not be monitored during its first two years of service, the time to discovery of its failure is \(X = max(T, 2)\).<br><br>    Calculate \(E(X)\).",radio,NA,\(2+\frac{1}{3}e^{-6}\),\(2-2e^{-2/3}+5e^{-4/3}\),3,\(2+3e^{-2/3}\),5,\(2+3e^{-2/3}\),"
The density function of T is
         1
 f (t ) = e <U+2212> t /3 , 0 < t < ??
          3
Therefore,
                                            2 <U+2212> t /3        ?? t
 E [ X ] = E max (T , 2 ) = ??
                                          2
                                               e dt + ?? e <U+2212> t /3 dt
                                         0  3               2 3
                                             ??
         = <U+2212>2e <U+2212> t /3 |20 <U+2212>te <U+2212> t /3 |??2 + ?? e <U+2212> t /3 dt = <U+2212>2e <U+2212>2/3 + 2 + 2e <U+2212>2/3 <U+2212> 3e <U+2212> t /3 |??2
                                             2
                    <U+2212>2/3
         = 2 + 3e
Alternatively, with probability 1 <U+2212> e <U+2212>2/3 the device fails in the first two years and contributes 2 to
the expected value. With the remaining probability the expected value is 2 + 3 = 5 (employing
the memoryless property). The unconditional expected value is (1 <U+2212> e <U+2212>2/3 )2 + (e <U+2212>2/3 )5 = 2 + 3e <U+2212>2/3 ."
47," A piece of equipment is being insured against early failure. The time from purchase until failure of the equipment is exponentially distributed with mean 10 years. The insurance will pay an amount x if the equipment fails during the first year, and it will pay 0.5x if failure occurs during the second or third year. If failure occurs after the first  three years, no payment will be made.<br><br>    Calculate x such that the expected payment made under this insurance is 1000.",radio,NA,3858,4449,5382,5644,7235,5644,"
We want to find x such that
                         1                             3
                             x <U+2013>t/10                       x 1
1000 = E[P] = ??
                         0
                           10
                                    e         dt +    ?? 2 10 e<U+2013>t/10 dt =
                                                       1
            1                                   3
1000 = ?? x(0.1) e           <U+2212> t /10
                                    dt + ?? 0.5 x(0.1)e <U+2212> t /10 dt
            0                                  1
                 <U+2212> t /10 1               <U+2212> t /10 3
        = <U+2212> xe             <U+2212>0.5 xe
                         0                        1
                 <U+2212>1/10                         <U+2212>3/10
        = <U+2212> xe           + x <U+2212> 0.5 xe                 + 0.5 xe <U+2212>1/10 = 0.1772 x.
Thus x = 5644."
48," An insurance policy on an electrical device pays a benefit of 4000 if the device fails during the first year. The amount of the benefit decreases by 1000 each successive year until it reaches 0. If the device has not failed by the beginning of any given year, the probability of failure during that year is 0.4.<br><br>    Calculate the expected benefit under this policy.",radio,NA,2234,2400,2500,2667,2694,2694,"
E[Y ] = 4000(0.4) + 3000(0.6)(0.4) + 2000(0.6) 2 (0.4) + 1000(0.6)3 (0.4)
         = 2694"
50," A company buys a policy to insure its revenue in the event of major snowstorms that shut down business. The policy pays nothing for the first such snowstorm of the year and 10,000 for each one thereafter, until the end of the year. The number of major snowstorms per year that shut down business is assumed to have a Poisson distribution with mean 1.5.<br><br>    Calculate the expected amount paid to the company under this policy during a one-year period.",radio,NA,"2,769","5,000","7,231","8,347","10,578","7,231","
The expected payment is
  ??
                           (3 / 2) n e <U+2212>3/2               ??
                                                                            (3 / 2) n e <U+2212>3/2
??n =1
      10, 000(   n   <U+2212> 1)
                                     n!
                                                    =   ??10, 000(n <U+2212> 1)
                                                         n =0                      n!
                                                                                               <U+2212> 10, 000(<U+2212>1)e <U+2212>3/2
                                                 <U+2212>3/2
= 10, 000(1.5 <U+2212> 1) + 10, 000e                         = 7, 231."
51," A manufacturer's annual losses follow a distribution with density function<br> $$ f(x) = \begin{cases}
\frac{2.5(0.6)^{2.5}}{x^{3.5}},  x \gt 0.6 \\
0, \text{otherwise.}
\end{cases} $$ <br> To cover its losses, the manufacturer purchases an insurance policy with an annual deductible of 2.<br><br>   Calculate the mean of the manufacturer's annual losses not paid by the insurance policy.",radio,NA,0.84,0.88,0.93,0.95,1,0.93,"
The expected payment is
                                      ??                                                   <U+2212>1.5 2              ??
                                                                                                     <U+2212> x <U+2212>2.5
 2
        2.5(0.6) 2.5                           2.5(0.6) 2.5                     2.5 <U+2212> x
 ??
0.6
     x
             x 3.5
                            dx     +  ??2 2
                                                     x 3.5
                                                                 dx = 2.5(0.6)
                                                                                        1.5
                                                                                                   +
                                                                                                      2.5
                                                                                               0.6            2
                       <U+2212>2<U+2212>1.5 0.6<U+2212>1.5                      2<U+2212>2.5
= 2.5(0.6) 2.5                     +                +2            = 0.9343.
                         1.5             1.5                2.5"
52," An insurance company sells a one-year automobile policy with a deductible of 2. The probability that the insured will incur a loss is 0.05. If there is a loss, the probability of a loss of amount N is K/N, for N = 1, . . . , 5 and K a constant. These are the only possible loss amounts and no more than one loss can occur.<br><br>    Calculate the expected payment for this policy.",radio,NA,0.031,0.066,0.072,0.11,0.15,0.031,"
First, determine K.
              1 1 1 1                 60 + 30 + 20 + 15 + 12             137
1 = K 1+ + + +                =K                                    =K
              2 3 4 5                              60                      60
        60
 K=
       137
Then, after applying the deductible, the expected payment is
0.05[(3 <U+2212> 2) P ( N = 3) + (4 <U+2212> 2) P ( N = 4) + (5 <U+2212> 2) P ( N = 5)]
= 0.05(60 /137)[1(1/ 3) + 2(1/ 4) + 3(1/ 5)] = 0.0314"
53," An insurance policy reimburses a loss up to a benefit limit of 10. The policyholder's loss, \(Y\), follows a distribution with density function:<br>  $$ f(y) = \begin{cases}
2y^{-3},  y \gt 1 \\
0, \text{otherwise.}
\end{cases} $$  <br> Calculate the expected value of the benefit paid under the insurance policy.",radio,NA,1,1.3,1.8,1.9,2,1.9,"
The expected payment is
10             ??                  10         ??
      2              2          2        20            2 2           20
 ??
 1
    y 3 dy + ?? 10 3 dy = <U+2212>
     y         10
                     y
                                     <U+2212> 2
                                y 1 2y
                                                 =<U+2212>
                                                      10 1
                                                          + <U+2212>0+
                                                                     200
                                                                          = 1.9.
                                             10"
54," An auto insurance company insures an automobile worth 15,000 for one year under a policy with a 1,000 deductible. During the policy year there is a 0.04 chance of partial damage to the car and a 0.02 chance of a total loss of the car. If there is partial damage to the car, the amount \(X\) of damage (in thousands) follows a distribution with density function<br> $$ f(x) = \begin{cases}
0.5003e^{-x/2},  0 \lt x \lt 15 \\
0, \text{otherwise.}
\end{cases} $$ <br>    Calculate the expected claim payment.",radio,NA,320,328,352,380,540,328,"
The expected payment is (in thousands)
                                        15
(0.94)(0) + (0.02)(15 <U+2212> 1) + 0.04 ?? ( x <U+2212> 1)0.5003e <U+2212> x /2 dx
                                       1
                                                          15
        = 0.28 + ( 0.020012 ) <U+2212>2e <U+2212> x /2 ( x <U+2212> 1) + ?? 2 e <U+2212> x /2 dx
                                                   15
                                                   1     1
                                                  (
        = 0.28 + ( 0.020012 ) <U+2212>2e <U+2212>7.5 (14) + <U+2212>4e <U+2212> x /2
                                                             15
                                                             1  )
        = 0.28 + ( 0.020012 ) <U+2212>2e <U+2212>7.5 (14) <U+2212> 4e <U+2212>7.5 + 4e <U+2212>0.5
        = 0.28 + ( 0.020012 )( 2.408 )
        = 0.328."
55," An insurance company's monthly claims are modeled by a continuous, positive random variable \(X\), whose probability density function is proportional to \((1 + x)^{-4}\), for \(0 < x < \infty \).<br><br>    Calculate the company's expected monthly claims.",radio,NA,  1/6,  1/3,  1/2,1,3,  1/2,"
     ??                               ??
            k            k     1           k
1= ??              dx = <U+2212>               = and so k = 3.
      0
        (1 + x) 4
                         3 (1 + x) 0 3
                                   3
The expected value is (where the substitution u = 1 + x is used.
   ??      3            ??                                                 ??
 ??0 x (1 + x)4 dx = ??1 3(u <U+2212> 1)u du = 3u / (<U+2212>2) <U+2212> 3u / (<U+2212>3) 1 = 3 / 2 <U+2212> 1 = 1/ 2.
                                   <U+2212>4           <U+2212>2               <U+2212>3
Integration by parts may also be used."
56," An insurance policy is written to cover a loss, X, where X has a uniform distribution on  [0, 1000]. The policy has a deductible, d, and the expected payment under the policy is 25% of what it would be with no deductible.<br><br>    Calculate d.",radio,NA,250,375,500,625,750,500,"
With no deductible, the expected payment is 500. With the deductible it is to be 125. Let d be the
deductible. Then,
                                                       1000
          1000                      ( x <U+2212> d )2
125 = ??        ( x <U+2212> d )(0.001)dx =            (0.001)      = 0.0005 (1000 <U+2212> d ) 2 <U+2212> 0
         d                               2             d
250, 000 = (1000 <U+2212> d ) 2
500 = 1000 <U+2212> d
d = 500."
57," An actuary determines that the claim size for a certain class of accidents is a random variable, X, with moment generating function<br><br>  $$ M_x(t) = \frac{1}{(1-2500t)^4} $$  <br><br> Calculate the standard deviation of the claim size for this class of accidents.",radio,NA,"1,340","5,000","8,660","10,000","11,180","5,000","
This is the moment generating function of a gamma distribution with parameters 4 and 2,500.
The standard deviation is the square root of the shape parameter times the scale parameter, or
2(2,500) = 5,000. But such recognition is not necessary.
M ??(t ) = 4(2500)(1 <U+2212> 2500t ) <U+2212>5
M ????(t ) = 20(2500) 2 (1 <U+2212> 2500t ) <U+2212>6
E ( X ) = M ??(0) = 10, 000
E ( X 2 ) = M ????(0) = 125, 000, 000
Var ( X ) = 125, 000, 000 <U+2212> 10, 0002 = 25, 000, 000
SD( X ) = 5, 000"
58," A company insures homes in three cities, J, K, and L. Since sufficient distance separates the cities, it is reasonable to assume that the losses occurring in these cities are mutually independent.<br><br>  The moment generating functions for the loss distributions of the cities are:<br>     $$ M_J(t) = (1-2t)^{-3},   M_K(t) = (1-2t)^{-2.5},   M_L(t) = (1-2t)^{-4.5}.   $$<br>    Let \(X\) represent the combined losses from the three cities.<br><br>  Calculate \(E(X^3)\) .",radio,NA,"1,320","2,082","5,760","8,000","10,560","10,560","
Because the losses are independent, the mgf of their sum is the product of the individual mgfs,
which is (1 <U+2013> 2t)-10. The third moment can be determined by evaluating the third derivative at
zero. This is (10)(2)(11)(2)(12)(2)(1<U+2013> 2(0))-13 = 10,560."
59," An insurer's annual weather-related loss, \(X\), is a random variable with density function<br>  $$ f(x) = \begin{cases}
\frac{2.5(200)^{2.5}}{x^{3.5}},  x \gt 200 \\
0, \text{otherwise.}
\end{cases} $$ <br> Calculate the difference between the 30<sup>th</sup> and 70<sup>th</sup> percentiles of \(X\).",radio,NA,35,93,124,231,298,93,"
The distribution function of X is
                                                    x
             x  2.5(200) 2.5          <U+2212>(200) 2.5                (200) 2.5
 F ( x) = ??                      dt =                    = 1<U+2212>             , x > 200
            200      t 3.5                t 2.5     200
                                                                   x 2.5
The pth percentile xp of X is given by
   p                       (200) 2.5
       = F (xp ) = 1 <U+2212>
100                           x 2.5
                                p
                (200) 2.5
1 <U+2212> 0.01 p =
                   x 2.5
                     p
                      200
 (1 <U+2212> 0.01 p )0.4 =
                       xp
              200
 xp =
       (1 <U+2212> 0.01 p)0.4
                                        200            200
It follows that x 70 <U+2212> x 30 =                0.4
                                                 <U+2212>              = 93.06 .
                                     (0.30)        (0.70)0.4"
60," A recent study indicates that the annual cost of maintaining and repairing a car in a town in Ontario averages 200 with a variance of 260.<br><br> A tax of 20% is introduced on all items associated with the maintenance and repair of cars (i.e., everything is made 20% more expensive).<br><br>    Calculate the variance of the annual cost of maintaining and repairing a car after the tax is introduced.",radio,NA,208,260,270,312,374,374,"
Let X and Y denote the annual cost of maintaining and repairing a car before and after the 20%
tax, respectively. Then Y = 1.2X and Var (Y ) = Var (1.2 X ) = 1.44Var ( X ) = 1.44(260) = 374.4 ."
62," A random variable X has the cumulative distribution function<br> $$ F(x) = \begin{cases}
0,   x \lt 1 \\
\frac{x^2-2x+2}{2}, 1 \leq x \lt 2\\
1, x \geq 2.
\end{cases} $$ <br>    Calculate the variance of \(X\).",radio,NA,7/72,08-1,5/36,03-4,23-12,5/36,"
First note that the distribution function jumps ?? at x = 1, so there is discrete probability at that
point. From 1 to 2, the density function is the derivative of the distribution function, x <U+2013> 1. Then,
                                                              2
           1            2                1        x3 x 2            1 8 4 1 1 4
 E ( X ) = (1) + ?? x( x <U+2212> 1)dx = +                    <U+2212>          =     + <U+2212> <U+2212> + =
           2           1                 2        3 2         1
                                                                    2 3 2 3 2 3
                                                                   2
              1 2           2                   1      x 4 x3            1 16 8 1 1 23
 E ( X ) = (1) + ?? x ( x <U+2212> 1)dx = +
       2                       2
                                                          <U+2212>           =   + <U+2212> <U+2212> + =
              2            1                    2      4 3         1
                                                                         2 4 3 4 3 12
                                                        2
                                           23 4              23 16 5
Var ( X ) = E ( X 2 ) <U+2212> [ E ( X ) ] =
                                      2
                                                <U+2212>         =      <U+2212> = .
                                           12       3       12 9 36"
63," The warranty on a machine specifies that it will be replaced at failure or age 4, whichever occurs first. The machine's age at failure, \(X\), has density function<br>   $$ f(x) = \begin{cases}
1/5,  0 \lt x \lt 5 \\
0, \text{otherwise.}
\end{cases} $$ <br>    Let \(Y\) be the age of the machine at the time of replacement.<br><br>   Calculate the variance of \(Y\).",radio,NA,1.3,1.4,1.7,2.1,7.5,1.7,"
           4                 5                  4
E[Y ] = ?? x(0.2)dx + ?? 4(0.2)dx = 0.1x 2 + 0.8 = 2.4
          0                  4                  0
             4                 5                            4
E[Y 2 ] = ?? x 2 (0.2)dx + ?? 42 (0.2)dx = (0.2 / 3) x3 + 3.2 = 7.46667
            0                  4                            0
Var[Y] = E[Y 2 ] <U+2212> ( E[Y ]) = 7.46667 <U+2212> 2.42 = 1.707.
                                 2"
64," A probability distribution of the claim sizes for an auto insurance policy is given in the table below:<p>
<style type=""text/css"">
table{
 margin:auto; width:40%       
}
th {padding-right:5px;}
</style>
<table border=""1"" margin:auto frame=void>
      <tr align =center>
        <th style=""text-align: center"">Claim<br>Size</th>
        <th style=""text-align: center"">Probability</th>
      </tr>
      <tr align=center>
        <td align = center>20<br>30<br>40<br>50<br>60<br>70<br>80</td>
        <td>0.15<br>0.10<br>0.05<br>0.20<br>0.10<br>0.10<br>0.30</td>
 
</table><br><br>
    Calculate the percentage of claims that are within one standard deviation of the mean claim size.",radio,NA,45%,55%,68%,85%,100%,45%,"
The mean is 20(0.15) + 30(0.10) + 40(0.05) + 50(0.20) + 60(0.10) + 70(0.10) + 80(0.30) = 55.
The second moment is 400(0.15) + 900(0.10) + 1600(0.05) + 2500(0.20) + 3600(0.10) +
4900(0.10) + 6400(0.30) = 3500. The variance is 3500 <U+2013> 552 = 475. The standard deviation is
21.79. The range within one standard deviation of the mean is 33.21 to 76.79, which includes the
values 40, 50, 60, and 70. The sum of the probabilities for those values is 0.05 + 0.20 + 0.10 +
0.10 = 0.45."
65," The owner of an automobile insures it against damage by purchasing an insurance policy with a deductible of 250. In the event that the automobile is damaged, repair costs can be modeled by a uniform random variable on the interval (0, 1500).<br><br>    Calculate the standard deviation of the insurance payment in the event that the automobile is damaged.",radio,NA,361,403,433,464,521,403,"
Let Y be the amount of the insurance payment.
                                                            1500
          1500     1                    1                           12502
E[Y ] = ??             ( x <U+2212> 250)dx =        ( x <U+2212> 250)    2
                                                                 =        = 521
          250 1500                    3000                           3000
                                                            250
                                                               1500
             1500   1                     1                           12503
E[Y ] = ??
     2
                        ( x <U+2212> 250) dx =
                                   2
                                               ( x <U+2212> 250)    3
                                                                    =       = 434, 028
            250   1500                  4500                   250     4500
Var[Y] = 434, 028 <U+2212> (521) 2 = 162,587
SD[Y ] = 403."
67," A baseball team has scheduled its opening game for April 1. If it rains on April 1, the game is postponed and will be played on the next day that it does not rain. The team purchases insurance against rain. The policy will pay 1000 for each day, up to 2 days, that the opening game is postponed.<br><br> The insurance company determines that the number of consecutive days of rain beginning on April 1 is a Poisson random variable with mean 0.6.<br><br>    Calculate the standard deviation of the amount the insurance company will have to pay.",radio,NA,668,699,775,817,904,699,"
The expected amount paid is (where N is the number of consecutive days of rain)
                                            e <U+2212>0.6 0.6
1000 P[ N = 1] + 2000 P[ N > 1] = 1000                  + 2000 (1 <U+2212> e <U+2212>0.6 <U+2212> e <U+2212>0.6 0.6 ) = 573.
                                                1!
The second moment is
                                                 e <U+2212>0.6 0.6
10002 P[ N = 1] + 20002 P[ N > 1] = 10002                    + 20002 (1 <U+2212> e <U+2212>0.6 <U+2212> e <U+2212>0.6 0.6 ) = 816,893.
                                                     1!
The variance is 816,893 <U+2013> 5732 = 488,564 and the standard deviation is 699."
68," An insurance policy reimburses dental expense, \(X\), up to a maximum benefit of 250. The probability density function for \(X\) is: <br> $$ f(x) = \begin{cases}
ce^{-0.004x},  x \geq 0 \\
0, \text{otherwise.}
\end{cases} $$   where \(c\) is a constant.<br><br> Calculate the median benefit for this policy.",radio,NA,161,165,173,182,250,173,"
X has an exponential distribution. Therefore, c = 0.004 and the distribution function is
F ( x) = 1 <U+2212> e <U+2212>0.004 x . For the moment, ignore the maximum benefit. The median is the solution to
0.5 = F (m) = 1 <U+2212> e <U+2212>0.004 m , which is m = <U+2212>250 ln(0.5) = 173.29. Because this is below the
maximum benefit, it is the median regardless of the existence of the maximum. Note that had the
question asked for a percentile such that the solution without the maximum exceeds 250, then the
answer is 250."
69, The time to failure of a component in an electronic device has an exponential distribution with a median of four hours.<br><br>    Calculate the probability that the component will work without failing for at least five hours.,radio,NA,0.07,0.29,0.38,0.42,0.57,0.42,"
The distribution function of an exponential random variable, T, is F (t ) = 1 <U+2212> e <U+2212> t ?? , t > 0 . With a
median of four hours, 0.5 = F (4) = 1 <U+2212> e <U+2212>4/?? and so ?? = <U+2212>4 / ln(0.5) . The probability the
component works for at least five hours is P[T ?? 5] = 1 <U+2212> F (5) = 1 <U+2212> 1 + e5ln(0.5)/4 = 0.55/4 = 0.42."
70," An insurance company sells an auto insurance policy that covers losses incurred by a policyholder, subject to a deductible of 100. Losses incurred follow an exponential  distribution with mean 300.<br><br>    Calculate the 95th percentile of losses that exceed the deductible.",radio,NA,600,700,800,900,1000,1000,"
This is a conditional probability. The solution is
                                            P[100 ?? X ?? p ] F ( p ) <U+2212> F (100)
     0.95 = P[ X ?? p | X > 100] =                                =
                                              P[ X > 100]             1 <U+2212> F (100)
             1 <U+2212> e <U+2212> p /300 <U+2212> 1 + e <U+2212>100/300 e <U+2212>100/300 <U+2212> e <U+2212> p /300
           =                   <U+2212>100/300
                                            =        <U+2212>100/300
                                                                     = 1 <U+2212> e <U+2212> ( p <U+2212>100)/300
                      1 <U+2212>1 + e                     e
               <U+2212> ( p <U+2212>100)/300
     0.05 = e
<U+2212>2.9957 = <U+2212>( p <U+2212> 100) / 300
         p = 999"
71," The time, \(T\), that a manufacturing system is out of operation has cumulative distribution function<br>    $$ F(t) = \begin{cases}
1-(\frac{2}{t})^2,   t \gt 2 \\
0, \text{otherwise.}
\end{cases} $$ <br>  The resulting cost to the company is \(Y\) = \(T^2\) . Let \(g\) be the density function for \(Y\).<br><br>  Determine \(g(y)\), for \(y > 4\).",radio,NA,\( \frac{4}{y^2}\),\( \frac{8}{y^{3/2}}\),\( \frac{8}{y^{3}}\),\( \frac{16}{y}\),\( \frac{1024}{y^5}\),\( \frac{4}{y^2}\),"
The distribution function of Y is given by G ( y ) = P (T ?? y ) = P (T ??                     y ) = F ( y ) = 1 <U+2212> 4 y for
                                                                       2
                                                                                    <U+2212>2
 y > 4 . Differentiate to obtain the density function g ( y ) = 4 y .
Alternatively, the density function of T f (t ) = F ??(t ) = 8t <U+2212>3 . We have t = y 0.5 and dt = 0.5 y <U+2212>0.5 dy .
Then g ( y ) = f ( y 0.5 ) dt dy = 8( y 0.5 ) <U+2212>3 (0.5 y <U+2212>0.5 ) = 4 y <U+2212>2 ."
72," An investment account earns an annual interest rate \(R\) that follows a uniform distribution on the interval (0.04, 0.08). The value of a 10,000 initial investment in this account after one year is given by \(V = 10, 000e^R\) . <br><br> Let \(F\) be the cumulative distribution function of \(V\). <br><br>  Determine \(F(v)\) for values of \(v\) that satisfy \(0 < F (v) < 1\).",radio,NA,\( \frac{10000e^{v/10000}-10408}{425}\),\( 25e^{v/10000}-0.04\),\( \frac{v-10408}{10833-10408}\),\( \frac{25}{v}\),\( 25[ \ln(\frac{v}{10000})-0.04]\),\( 25[ \ln(\frac{v}{10000})-0.04]\),"
The distribution function of V is given by
 F (v) = P[V ?? v] = P 10, 000e R ?? v = P [ R ?? ln(v) <U+2212> ln(10, 000) ]
                                          ln( v ) <U+2212> ln(10,000)
      ln( v ) <U+2212> ln(10,000)  1          r
 =??                             dr =                            = 25ln(v) <U+2212> 25ln(10, 000) <U+2212> 1
     0.04                  0.04      0.04 0.04
                        v
 = 25 ln                       <U+2212> 0.04 .
                    10, 000"
73," An actuary models the lifetime of a device using the random variable \(Y = 10X^{ 0.8}\), where \(X\) is an exponential random variable with mean 1.<br><br>    Let \(f(y)\) be the density function for \(Y\).<br><br>  Determine \(f(y)\), for \(y \lt 0\).",radio,NA,\(10y^{0.8}\exp(-8y^{-0.2})\),\(8y^{-0.2}\exp(-10y^{0.8})\),\(8y^{-0.2}\exp[-(0.1y)^{1.25}]\),\((0.1y)^{1.25}\exp[-0.125(0.1y)^{0.25}]\),\(0.125(0.1y)^{0.25}\exp[-(0.1y)^{1.25}]\),\(0.125(0.1y)^{0.25}\exp[-(0.1y)^{1.25}]\),"
                                                                                                 1.25
 F ( y ) = P[Y ?? y ] = P[10 X 0.8 ?? y ] = Pr X ?? (0.1 y )1.25 = 1 <U+2212> e <U+2212> (0.1 y )                      .
                                                                           1.25
Therefore, f ( y ) = F ??( y ) = 0.125(0.1 y ) e
                                                            0.25 <U+2212> (0.1 y )
                                                                                ."
74," Let \(T\) denote the time in minutes for a customer service representative to respond to 10 telephone inquiries. \(T\) is uniformly distributed on the interval with endpoints 8 minutes and 12 minutes.<br><br> Let \(R\) denote the average rate, in customers per minute, at which the representative responds to inquiries, and let \(f(r)\) be the density function for \(R\). <br><br> Determine\(f(r)\), for \(\frac{10}{12} \leq r \leq \frac{10}{8} \).",radio,NA,\(\frac{12}{5}\),\(3-\frac{5}{2r}\),\(3r-\frac{5\ln(r)}{2}\),\(\frac{10}{r^2}\),\(\frac{5}{2r^2}\),\(\frac{5}{2r^2}\),"
First note R = 10/T . Then,
                                                                               12
 F (r ) = P[ R ?? r ] = P[10 / T ?? r ] = P[T ?? 10 / r ] = ??                          0.25dt = 0.25(12 <U+2212> 10 / r ) . The density
                                                                              10/ r
function is f (r ) = F ??(r ) = 2.5 / r 2 .
Alternatively, t = 10/r and dt = <U+2013>10/r2dr. Then f R (r ) = fT (10 / r ) | dt / dr | = 0.25(10 / r 2 ) = 2.5 / r 2
."
75, The monthly profit of Company I can be modeled by a continuous random variable with density function \(f\). Company II has a monthly profit that is twice that of Company I.<br><br> Let \(g\) be the density function for the distribution of the monthly profit of Company II.<br><br>    Determine \(g(y)\) where it is not zero.<br>,radio,NA,\(\frac{1}{2}f(\frac{y}{2})\),\(f(\frac{y}{2})\),\(2f(\frac{y}{2})\),\(2f(y)\),\(2f(2y)\),\(\frac{1}{2}f(\frac{y}{2})\),"
Let Y be the profit for Company II, so Y = 2X.
 G ( y ) = P[Y ?? y ] = P[2 X ?? y ] = P[ X ?? y / 2] = F ( y / 2)
 g ( y ) = G??( y ) = F ??( y / 2) = (1/ 2) f ( y / 2).
Alternatively, X = Y/2 and dx = dy/2. Then,
 g ( y ) = f ( y / 2) | dx / dy |= f ( y / 2)(1/ 2)."
76," Claim amounts for wind damage to insured homes are mutually independent random variables with common density function<br>   $$ f(x) = \begin{cases}
\frac{3}{x^4}, x \gt 1 \\
0, \text{otherwise.}
\end{cases} $$ <br> where \(x\) is the amount of a claim in thousands.<br><br> Suppose 3 such claims will be made.<br><br> Calculate the expected value of the largest of the three claims.",radio,NA,2025,2700,3232,3375,4500,2025,"
The distribution function of X is given by
              x 3            x
 F ( x) = ?? 4 dt = <U+2212>t <U+2212>3 = 1 <U+2212> x <U+2212>3 , x > 1
            1 t              1
Next, let X1, X2, and X3 denote the three claims made that have this distribution. Then if Y
denotes the largest of these three claims, it follows that the distribution function of Y is given by
G ( y ) = P[ X 1 ?? y ]P[ X 2 ?? y ]P[ X 3 ?? y ] = (1 <U+2212> y <U+2212>3 )3 .
The density function of Y is given by
 g ( y ) = G??( y ) = 3(1 <U+2212> y <U+2212>3 ) 2 (3 y <U+2212>4 ).
Therefore,
             ??                                  ??
 E[Y ] = ?? y3(1 <U+2212> y <U+2212>3 ) 2 3 y <U+2212>4 dy = 9 ?? y <U+2212>3 <U+2212> 2 y <U+2212>6 + y <U+2212>9 dy
            1                                  1
                                                   ??
         = 9 <U+2212> y <U+2212>2 / 2 + 2 y <U+2212>5 / 5 <U+2212> y <U+2212>8 / 8         = 9 [1/ 2 <U+2212> 2 / 5 + 1/ 8]
                                                   1
         = 2.025 (in thousands)."
77," A device runs until either of two components fails, at which point the device stops running. The joint density function of the lifetimes of the two components, both measured in hours, is<br> $$f(x,y) = \frac{x+y}{8}, \text{ for } 0\lt x \lt 2 \text{ and } 0 \lt y \lt 2$$ <br> Calculate the probability that the device fails during its first hour of operation.",radio,NA,0.125,0.141,0.391,0.625,0.875,0.625,"
The probability it works for at least one hour is the probability that both components work for
more than one hour. This probability is
                                            2                                        2
   2  2  x+ y            2 0.5 x + xy
                                 2
                                                      2 1.5 + y      1.5 y + 0.5 y 2
 ??1 ??1 8       dxdy  = ??1 8                   dy =  ??1 8        dy =
                                                                             8
                                                                                       = 0.375.
                                           1                                         1
The probability of failing within one hour is the complement, 0.625."
79," A device contains two components. The device fails if either component fails. The joint density function of the lifetimes of the components, measured in hours, is \(f(s,t)\), where \(0 \lt s \lt 1\) and \(0 \lt t \lt 1\). <br><br>  Determine which of the following represents the probability that the device fails during the first half hour of operation.",radio,NA,"\(\int_{0}^{0.5}\int_{0}^{0.5} f(s,t)dsdt\)","\(\int_{0}^{1}\int_{0}^{0.5} f(s,t)dsdt\)","\(\int_{0.5}^{1}\int_{0.5}^{1} f(s,t)dsdt\)","\(\int_{0}^{0.5}\int_{0}^{1} f(s,t)dsdt + \int_{0}^{1}\int_{0}^{0.5} f(s,t)dsdt \)","\(\int_{0}^{0.5}\int_{0.5}^{1} f(s,t)dsdt + \int_{0}^{1}\int_{0}^{0.5} f(s,t)dsdt \)","\(\int_{0}^{0.5}\int_{0.5}^{1} f(s,t)dsdt + \int_{0}^{1}\int_{0}^{0.5} f(s,t)dsdt \)","
Let s be on the horizontal axis and t be on the vertical axis. The event in question covers all but
the upper right quarter of the unit square. The probability is the integral over the other three
quarters. Answer (A) is the lower left quarter. Answer B is the left half. Answer (C) is the upper
right quarter. Answer (D) is the lower half plus the left half, so the lower left quarter is counted
twice. Answer (E) is the lower right corner plus the left half, which is the correct region.
For this question, the regions don??t actually need to be identified. The area is 0.75 while the five
answer choices integrate over regions of area 0.25, 0.5, 0.25, 1, and 0.75 respectively. So only
(E) can be correct."
80,A charity receives 2025 contributions. Contributions are assumed to be mutually independent and identically distributed with mean 3125 and standard deviation 250.<br><br>    Calculate the approximate 90th percentile for the distribution of the total contributions received.,radio,NA,"6,328,000","6,338,000","6,343,000","6,784,000","6,977,000","6,343,000","The mean and standard deviation for the 2025 contributions are 2025(3125) = 6,328,125 and
45(250) = 11,250. By the central limit theorem, the total contributions are approximately
normally distributed. The 90th percentile is the mean plus 1.282 standard deviations or 6,328,125
+ 1.282(11,250) = 6,342,548."
85," The total claim amount for a health insurance policy follows a distribution with density function<br> $$f(x) = \frac{1}{1000}e^{-(x/1000)}, x \gt 0. $$ <br>    The premium for the policy is set at the expected total claim amount plus 100.<br><br>   If 100 policies are sold, calculate the approximate probability that the insurance company will have claims exceeding the premiums collected.",radio,NA,0.001,0.159,0.333,0.407,0.46,0.159,"
A single policy has an exponential distribution with mean and standard deviation 1000. The
premium is then 1000 + 100 = 1100. For 100 policies, the total claims have mean 100(1000) =
100,000 and standard deviation 10(1000) = 10,000. Total premiums are 100(1100) = 110,000.
The probability of exceeding this number is the probability that a standard normal variable
exceeds (110,000 <U+2013> 100,000)/10,000 = 1. From the tables this probability is 1 <U+2013> 0.8413 = 0.1587."
88," The waiting time for the first claim from a good driver and the waiting time for the first claim from a bad driver are independent and follow exponential distributions with means 6 years and 3 years, respectively.<br><br>    Calculate the probability that the first claim from a good driver will be filed within 3 years and the first claim from a bad driver will be filed within 2 years.",radio,NA,\( \frac{1}{18}(1-e^{-2/3}-e^{-1/2}+e^{-7/6}) \),\( \frac{1}{18}e^{-7/6} \),\(  1-e^{-2/3}-e^{-1/2}+e^{-7/6} \),\(  1-e^{-2/3}-e^{-1/2}+e^{-1/3} \),\(  1-\frac{1}{3}e^{-2/3}- \frac{1}{6}e^{-1/2}+ \frac{1}{18}e^{-7/6} \),\(  1-e^{-2/3}-e^{-1/2}+e^{-7/6} \),"
For a good driver, the probability is 1 <U+2212> e <U+2212>3/6 and for a bad driver, the probability is 1 <U+2212> e <U+2212>2/3 . The
probability of both is the product, (1 <U+2212> e <U+2212>3/6 )(1 <U+2212> e <U+2212>2/3 ) = 1 <U+2212> e <U+2212>1/2 <U+2212> e <U+2212>2/3 + e <U+2212>7/6 ."
89," The future lifetimes (in months) of two components of a machine have the following joint density function:<br> $$ f(x,y) = \begin{cases}
\frac{6}{125000}(50-x-y),  0 \lt x \lt 50-y \lt 50 \\
0, \text{otherwise.}
\end{cases} $$ <br>  Determine which of the following represents the probability that both components are still functioning 20 months from now.",radio,NA,\(\frac{6}{125000} \int_{0}^{20}\int_{0}^{20} (50-x-y)dydx \),\(\frac{6}{125000} \int_{20}^{30}\int_{20}^{50-x} (50-x-y)dydx \),\(\frac{6}{125000} \int_{20}^{30}\int_{20}^{50-x-y} (50-x-y)dydx \),\(\frac{6}{125000} \int_{20}^{50}\int_{20}^{50-x} (50-x-y)dydx \),\(\frac{6}{125000} \int_{20}^{50}\int_{20}^{50-x-y} (50-x-y)dydx \),\(\frac{6}{125000} \int_{20}^{30}\int_{20}^{50-x} (50-x-y)dydx \),"
The probability both variables exceed 20 is represented by the triangle with vertices (20,20),
(20,30), and (30,20). All the answer choices have x as the outer integral and x ranges from 20 to
30, eliminating answers (A), (D), and (E). For a given value of x, the triangle runs from the base
at y = 20 to the diagonal line at y = 50 <U+2013> x. This is answer (B)."
101,The profit for a new product is given by \(Z = 3X - Y - 5\). \(X\) and \(Y\) are independent random variables with Var(\(X\)) = 1 and Var(\(Y\)) = 2.<br> <br>  Calculate Var(\(Z\)).,radio,NA,1,5,7,11,16,11,"Due to the independence of X and Y
Var ( Z ) = Var (3 X <U+2212> Y <U+2212> 5) = 32 Var ( X ) + (<U+2212>1) 2 Var (Y ) = 9(1) + 2 = 11."
114,"A diagnostic test for the presence of a disease has two possible outcomes: 1 for disease present and 0 for disease not present. Let \(X\) denote the disease state (0 or 1) of a patient, and let \(Y\) denote the outcome of the diagnostic test. The joint probability function of \(X\) and \(Y\) is given by:<br><br> $$P[X = 0, Y = 0] = 0.800$$
$$P[X = 1, Y = 0] = 0.050$$                     $$P[X = 0, Y = 1] = 0.025$$
$$P[X = 1, Y = 1] = 0.125$$ <br> Calculate Var(\(Y|X = 1\)).",radio,NA,0.13,0.15,0.2,0.51,0.71,0.2,"                           P( X = 1, Y = 0)                       P( X = 1, Y = 0)                   0.05
 P[Y = 0 | X = 1] =                                  =                                          =             = 0.286
                               P ( X = 1)               P ( X = 1, Y = 0) + P ( X = 1, Y = 1) 0.05 + 0.125
 P[Y = 1| X = 1] = 1 <U+2212> 0.286 = 0.714.
The conditional variable is Bernoulli with p = 0.714. The variance is (0.714)(0.286) = 0.204."
121,"Let \(X\) represent the age of an insured automobile involved in an accident. Let Y represent the length of time the owner has insured the automobile at the time of the accident. <br><br>X and Y have joint probability density function<br><br> $$ f(x,y) = \begin{cases}
\frac{1}{64}(10-xy^2), 2\leq x\leq 10, 0 \leq y \leq 1 \\
0, \text{otherwise.}
\end{cases} $$  <br><br> Calculate the expected age of an insured automobile involved in an accident.",radio,NA,4.9,5.2,5.8,6,6.4,5.8,"The marginal density of X is given by
                                                                   1
                  1                          1             xy 3         1        x
                     (10 <U+2212> xy 2 ) dy =
              1
 f X ( x) = ??                                    10 y <U+2212>               =     10 <U+2212>
              0 64                          64               3          64       3
                                                                   0
Then,
                                                                                     10
               10                    10    1          x              1 10 x 2 x3
 E[ X ] = ?? x f X ( x)dx = ??            x      10 <U+2212> dx =                      <U+2212>
              2                     2      64        3             64 2          9   2
             1 1000 1000 40 8
          =                 <U+2212>          <U+2212> + = 5.78.
             64 2                9         2 9"
