"","What type of learner are you?","Based on your assessment outcome, your ability estimate is 0(average). Do you want to go easier, harder or stay [at current difficult level]?","How much programming experience did you have prior to training with these materials?","What is the maximum amount of time you would like to dedicate to a given training session?","How often would you review the materials that you have alreay learned?","Which learning method do you prefer the most?"
"results","Graduate","Stay at current level","a little","less than 15 mins","only once","only once"
"results","Graduate","Stay at current level","a little","less than 15 mins","only once","Video to Watch"
"results","Less than high school","Much easier","None","Less than 15 mins","Only once","Only once"
"results","Less than high school","Much easier","None","Less than 15 mins","Only once","Video to watch"
"results","Less than high school","Much easier","None","Less than 15 mins","Only once","Only once"
"results","Less than high school","Much easier","None","Less than 15 mins","Only once","Video to watch"
"results","Less than high school","Much easier","None","Less than 15 mins","Only once","Only once"
"results","Less than high school","Much easier","None","Less than 15 mins","Only once","Video to watch"
