"Problem ID","Problem Description","Hint","A","B","C","D","Feedback","answer","ansValue"
8,"20% of registered voters in Pennsylvania are under 25 years old and the probability that a registered voter in that age group will vote in the next Presidential election is 30% lower than the probability for a registered voter over 25 years old. What is the probability that a random group of 5 voters in the next Presidential election includes no one under 25?","Use Bayes Theorem and independence of different voters.","\(0.8^5\)","\(\left(1-\frac{0.2}{0.2+\frac{0.8}{0.7}}\right)^5\)","\({{5}\choose{1}}\cdot{0.8}^4\cdot{0.2}\)","\(0.7^5\)",NA,"B","\(\left(1-\frac{0.2}{0.2+\frac{0.8}{0.7}}\right)^5\)"
9,"20% of registered voters in Pennsylvania are under 25 years old and the probability that a registered voter in that age group will vote in the next Presidential election is 30% lower than the probability for a registered voter over 25 years old. In a group of 100 random voters from the next Presidential election, what is the variance of the number of them who are under 25 years old?","Use Bayes Theorem and think about the type of variable the number of them will be.","\(100(0.2)(0.8)\)","\(\frac{100}{0.7^2}\)","\(\frac{100}{0.8^2}\)","\(100\cdot\left(\frac{0.2}{0.2+\frac{0.8}{0.7}}\right)\cdot\left(1-\frac{0.2}{0.2+\frac{0.8}{0.7}}\right)\)",NA,"D","\(100\cdot\left(\frac{0.2}{0.2+\frac{0.8}{0.7}}\right)\cdot\left(1-\frac{0.2}{0.2+\frac{0.8}{0.7}}\right)\)"
12,"An insurance company pays claims on an average of 25 cases per day where deer were hit by cars. The average size of these claims is $2100 with a standard deviation of $4300. What is the expected total amount this company will pay out on such claims next week?","What is the distribution of the number of claims in a week?","\(7*25*2100\)","2100","\(25(2100)\)","\(7*25\)",NA,"A","\(7*25*2100\)"
30,"The total weight of the fish caught by a fisherman, \(X\), has a moment generating function \(M_X\). A second fisherman operates independently and with the amount caught following the same distribution. The fish can be sold for $2 per pound. What is the moment generating function of the total sale price of the catch from both fishermen?","What is the MGF of the sum of two independent and identically distributed random variables?","\(\left[2M_X(t)\right]^2\)","\(\left(M_X(2t)\right)^2\)","\(2M_X(2t)\)","\( \left(M'_X(t)\right)^2\)",NA,"B","\(\left(M_X(2t)\right)^2\)"
