level_1,level_2,level_3,level_4,URL link,Difficulty Level,Short Description,Estimated Time,Programming Experience,Learning Method
Introduction to R,Data Wrangling and Manipulation,Base Data Wrangling,Base Data Structures,https://psu.box.com/s/k3yeid6bx01y7ozz4vpe4walz2pn7vnq,-3,Install R and other basics by Sy-Miin Chow,4,None,Video to watch
Introduction to R,Data Wrangling and Manipulation,Base Data Wrangling,Base Data Structures,https://psu.box.com/s/67nqkzqweoueqa0dc6bfb788vs8cb8r8,-2.5,Introductory Base R operations by Sy-Miin Chow,30.28,None,Video to watch
Introduction to R,Data Wrangling and Manipulation,Base Data Wrangling,Base Data Structures,https://www.datacamp.com/courses/free-introduction-to-r,-2,Free datacamp introductory R module,240,None,Try as you read
Introduction to R,Data Wrangling and Manipulation,Base Data Wrangling,Base Data Structures,https://nyu.databrary.org/volume/473/slot/20244/-,-2,PSU R bootcamp day 1 intro by James LeBreton and Rick Gilmore,120,None,Try as you read
Introduction to R,Data Wrangling and Manipulation,Base Data Wrangling,Base Data Structures,https://psu-psychology.github.io/r-bootcamp/tutorials/functional_programming_in_R.html,-1.5,PSU R bootcamp functional programming in R by<U+00A0>Daniel Albohn,30,Some,Try as you read
Introduction to R,Data Wrangling and Manipulation,Base Data Wrangling,Base Data Management,https://newonlinecourses.science.psu.edu/stat484/node/256/,-2.5,Importing Data lesson by Eric Nord (STAT 484 Lesson 8),22.33,None,Video to watch
Introduction to R,Data Wrangling and Manipulation,Base Data Wrangling,Base Data Management,https://www.youtube.com/playlist?list=PLcgz5kNZFCkzSyBG3H-rUaPHoBXgijHfC,-2.3,Two-minute tutorials by Anthony Damico,18,None,Video to watch
Introduction to R,Data Wrangling and Manipulation,Base Data Wrangling,Base Data Management,https://newonlinecourses.science.psu.edu/stat484/node/262/,-1.8,Base R data manipulation by Eric Nord (STAT 484 Lesson 9),33.83,A little,Video to watch
Introduction to R,Data Wrangling and Manipulation,Base Data Wrangling,Base Data Cleaning,https://psu-psychology.github.io/r-bootcamp-2018/talks/joins_tutorial_bnj.html,-1.5,Joins tutorial by Ben Johnson,30,A little,Try as you read
Introduction to R,Data Wrangling and Manipulation,Base Data Wrangling,Base Data Cleaning,https://newonlinecourses.science.psu.edu/stat484/node/271/,-2,merge() illustration by Eric Nord (STAT 484 Lesson 9.9),3.11,A little,Video to watch
Introduction to R,Data Wrangling and Manipulation,Tidyverse,Tidy Data Structures,https://psu-psychology.github.io/r-bootcamp-2018/talks/dplyr_walkthrough_2018.html,-1.5,dply and tidyr walkthrough by Michael Hallquist,60,A little,Try as you read
Introduction to R,Data Wrangling and Manipulation,Tidyverse,Tidy Data Management,https://r4ds.had.co.nz/tidy-data.html,1,R4DS Guide to Tidy Data,60,A little,Try as you read
Introduction to R,Data Wrangling and Manipulation,Tidyverse,Tidy Data Cleaning,https://geanders.github.io/RProgrammingForResearch/entering-and-cleaning-data-1.html#data-cleaning,0,lecture on cleaning data using dplyr,12,Some,Video to watch
Introduction to R,Data Visualization,Base Visualizations,Scatterplots,https://www.statmethods.net/graphs/scatterplot.html,-1.5,Quick-R Tutorial on Scatterplots,15,A little,Try as you read
Introduction to R,Data Visualization,Base Visualizations,Scatterplots,https://www.r-graph-gallery.com/scatterplot.html,0,R Graph Gallery of Different Scatterplots,30,A little,Try as you read
Introduction to R,Data Visualization,Base Visualizations,Scatterplots,http://www.sthda.com/english/wiki/scatter-plots-r-base-graphs,0,STHDA Guide for Scatterplots,10,A little,Try as you read
Introduction to R,Data Visualization,Base Visualizations,Boxplots and Barplots,https://online.stat.psu.edu/stat485/lesson/17,0,Box and Barplots Guide,34.46,Some,Video to watch
Introduction to R,Data Visualization,GGPlot2,,http://r-statistics.co/Complete-Ggplot2-Tutorial-Part2-Customizing-Theme-With-R-Code.html,-2,Customizing GGPlot,30,A little,Try as you read
Introduction to R,Data Visualization,GGPlot2,,http://r-statistics.co/Complete-Ggplot2-Tutorial-Part1-With-R-Code.html,-2,Constructing simple Ggplots,30,A little,Try as you read
Introduction to R,Data Visualization,Networks,,http://sachaepskamp.com/semPlot/examples?page_id=489,-1.5,semPlot Examples by Sacha Epskamp,30,A little,Try as you read
Introduction to R,Data Visualization,Networks,,https://kateto.net/networks-r-igraph,-1.5,Network analysis with igraph,90,A little,Try as you read
Introduction to R,Data Visualization,Networks,,http://sachaepskamp.com/files/Cookbook.html,-1.5,Basics in network analysis with qgraph,30,A little,Try as you read
Introduction to R,Reproducibility,Git,,https://www.youtube.com/watch?v=SWYqp7iY_Tc,-2,Git Beginner crash course,32.41,A little,Video to watch
Introduction to R,Reproducibility,R Markdown,,https://psu.box.com/s/2bxz3gtyqw5blljxon9zuk2famzt99z8,-2.5,R Markdown intro by Allison Gray,6.18,None,Video to watch
Introduction to R,Reproducibility,R Markdown,,https://online.stat.psu.edu/stat485/lesson/14,-0.5,R Markdown intermediate topics by Eric Nord (STAT 485 Chapter 14),26.44,Some,Video to watch
Introduction to R,Data Wrangling and Manipulation,Tidyverse,Tidy Data Management,https://github.com/rstudio/cheatsheets/raw/master/data-transformation.pdf,0,Cheatsheets for dplyr package provided by R core team,30,A little,Try as you read
Introduction to R,Data Wrangling and Manipulation,Tidyverse,Tidy Data Cleaning,https://github.com/rstudio/cheatsheets/raw/master/data-import.pdf,0,Cheatsheets for readr package provided by R core team,30,A little,Try as you read
Introduction to R,Data Visualization,Base Visualizations,Scatterplots,https://www.youtube.com/watch?v=FEAS3akVxD8,-1.5,Quick-R Video Tutorial on Scatterplots,5,A little,Video to watch
Introduction to R,Data Visualization,Base Visualizations,Scatterplots,https://www.youtube.com/watch?v=lPOSwfxMd3c&list=PLqzoL9-eJTNBlVXxWvJkq0dtVut2sICUW&index=27,0,Video lecture on modfying plots produced in R,15,Some,Video to watch
Introduction to R,Data Visualization,GGPlot2,,https://github.com/rstudio/cheatsheets/raw/master/data-visualization-2.1.pdf,0,Cheatsheets for ggplot2 package provided by R core team,30,A little,Try as you read
Introduction to R,Data Wrangling and Manipulation,Base Data Wrangling,Base Data Structures,https://www.youtube.com/watch?v=1BcGnHwUT6k&list=PLqzoL9-eJTNBlVXxWvJkq0dtVut2sICUW&index=9,1,Quick tutorial on working with variables in R,8,A little,Video to watch
Introduction to R,Data Wrangling and Manipulation,Base Data Wrangling,Base Data Structures,https://www.youtube.com/watch?v=jGf7WNh-LX8&list=PLqzoL9-eJTNBlVXxWvJkq0dtVut2sICUW&index=10,1,Quick tutorial on subsetting data in R,4.5,A little,Video to watch
Introduction to R,Data Wrangling and Manipulation,Base Data Wrangling,Base Data Structures,https://www.youtube.com/watch?v=NFaK1Qn4u3A&list=PLqzoL9-eJTNBlVXxWvJkq0dtVut2sICUW&index=11,1,Quick tutorial on using logic commands in R,4.5,A little,Video to watch
Introduction to R,Data Wrangling and Manipulation,Base Data Wrangling,Base Data Management,https://www.youtube.com/watch?v=qPk0YEKhqB8&list=PLqzoL9-eJTNBlVXxWvJkq0dtVut2sICUW&index=5,-1,Quick tutorial on importing data from csv/txt to R,7,A little,Video to watch
Introduction to R,Data Wrangling and Manipulation,Base Data Wrangling,Base Data Management,https://www.youtube.com/watch?v=WjpcbmcJjjM&list=PLqzoL9-eJTNBlVXxWvJkq0dtVut2sICUW&index=7,-1,Quick tutorial on exporting data from R ,5,A little,Video to watch
Introduction to R,Data Wrangling and Manipulation,Base Data Wrangling,Base Data Cleaning,,-1.5,R tutorial: Introduction to cleaning data with R,30,A little,Video to watch
Introduction to R,Data Wrangling and Manipulation,Tidyverse,Tidy Data Cleaning,https://geanders.github.io/RProgrammingForResearch/entering-and-cleaning-data-2.html,0,introduction to tidy data,13,Some,Video to watch
Introduction to R,Reproducibility,R Markdown,,https://www.rstudio.com/wp-content/uploads/2015/03/rmarkdown-reference.pdf,0,R Markdown reference guide by R core team,15,Some,Try as you read
Introduction to R,Reproducibility,R Markdown,,https://rmarkdown.rstudio.com/authoring_quick_tour.html,-2,Quick tour on R markdown from Rstudio team,2,None,Video to watch
Introduction to R,Reproducibility,R Markdown,,https://statsandr.com/blog/getting-started-in-r-markdown/,0,Some grammars on R markdown,30,Some,Try as you read
Introduction to R,Data Visualization,Base Visualizations,Boxplots and Barplots,https://www.youtube.com/watch?v=U64yNvlhv9I&list=PLqzoL9-eJTNDw71zWePXyHx3_cm_fMP8S&index=19,-1,Quick tutorial on Boxplots,4,A little,Video to watch
Introduction to R,Data Visualization,Base Visualizations,Boxplots and Barplots,https://www.youtube.com/watch?v=Eph_Y0BmHU0&list=PLqzoL9-eJTNDw71zWePXyHx3_cm_fMP8S&index=18,-1,Quick tutorial on Barcharts and Piecharts,5,A little,Video to watch
Introduction to R,Data Visualization,Base Visualizations,Boxplots and Barplots,https://www.datamentor.io/r-programming/bar-plot/,0,Hands on practice on Barplots,15,A little,Try as you read
Introduction to R,Data Visualization,GGPlot2,,https://www.youtube.com/watch?v=ccLi41JwkbQ,-1,Quick tutorial on drawing simple ggplot,5,A little,Video to watch
