ID,Course,Package,Topic1,Topic2,type,Group Assignment,SetA,SetB,SetC
rboot001,Rbasics,ggplot2,Data Visualization,Plotting,radio,ANCHOR,1,1,1
rboot002,Rbasics,,Data Wrangling,Data Semantics,checkbox,A/C,1,0,1
rboot003,Rbasics,,Coding,Rscript,radio,ANCHOR,1,1,1
rboot004,Rbasics,,Data Wrangling,Data Semantics,radio,ANCHOR,1,1,1
rboot005,Rbasics,,Data Wrangling,Data Semantics,radio,A,1,0,0
rboot006,Rbasics,,Data Wrangling,Data Semantics,radio,A,1,0,0
rboot007,Rbasics,tidyr,Data Wrangling,Function,radio,B/C,0,1,1
rboot008,Rbasics,tidyr,Data Wrangling,Coding,radio,ANCHOR,1,1,1
rboot009,Rbasics,tidyr,Data Wrangling,Function,radio,ANCHOR,1,1,1
rboot010,Rbasics,tidyr,Data Wrangling,Function,radio,ANCHOR,1,1,1
rboot011,Rbasics,dplyr,Data Wrangling,Coding,radio,ANCHOR,1,1,1
rboot012,Rbasics,,Rscript,R knowledge,radio,B,0,1,0
rboot013,Rbasics,tidyverse,Data Wrangling,Coding,radio,A/C,1,0,1
rboot014,Rbasics,tidyr,Data Wrangling,Function,radio,A,1,0,0
rboot015,Rbasics,dplyr,Data Wrangling,R knowledge,radio,B/C,0,1,1
rboot016,Rbasics,dplyr,Data Wrangling,Function,radio,ANCHOR,1,1,1
rboot017,Rbasics,dplyr,Data Wrangling,Function,radio,A/C,1,0,1
rboot018,Rbasics,dplyr,Data Wrangling,Function,radio,ANCHOR,1,1,1
rboot019,Rbasics,dplyr,Data Wrangling,Function,radio,A,1,0,0
rboot020,Rbasics,dplyr,Data Wrangling,Coding,radio,A,1,0,0
rboot021,Rbasics,ggplot2,Data Visualization,Coding,radio,B,0,1,0
rboot022,Rbasics,ggplot2,Data Visualization,Function,radio,B,0,1,0
rboot023,Rbasics,ggplot2,Data Visualization,Coding,radio,A/C,1,0,1
rboot024,Rbasics,ggplot2,Data Visualization,Function,radio,A/C,1,0,1
rboot025,Rbasics,ggplot2,Data Visualization,Prediction,radio,B/C,0,1,1
rboot026,Rbasics,ggplot2,Data Visualization,Prediction,radio,ANCHOR,1,1,1
rboot027,Rbasics,ggplot2,Data Visualization,Prediction,radio,B/C,0,1,1
rboot028,Rbasics,ggplot2,Data Visualization,Coding,radio,B/C,0,1,1
rboot029,Rbasics,ggplot2,Data Visualization,Prediction,radio,B,0,1,0
rboot030,Rbasics,ggplot2,Data Visualization,Function,radio,B,0,1,0
