"ID","Question","Option.1","Option.2","Option.3","Option.4","Option.5","Answers","Type","Stem","Course","Topic1","Topic2","Difficulty","Author","Hint"
"Dist029","Identify the distribution of given context: A yardstick is broken randomly into two pieces. Let X represent the position (in yards) of the break from the left end.","Beta","Continuous Uniform","Exponential","Discrete Uniform",NA,"Continuous Uniform","radio",NA,"STAT414","Continuous Uniform","",0.12,"Dennis Pearl","no preferece for any position"
"Dist053","Identify the distribution of given context: Let X represent how many randomly chosen people you will need to select to fine one who is left-handed.","Bernoulli","Discrete Uniform","Geometric","Exponential",NA,"Geometric","radio",NA,"STAT414","Geometric","",0.13,"Dennis Pearl","tests until 1st success"
"Dist071","Identify the distribution of given context: Let X represent the number of gallons of gas purchased by the next 100 customers at a service station.","Discrete Uniform","Poisson","Normal","Exponential",NA,"Normal","radio",NA,"STAT414","Normal","",-0.12,"Dennis Pearl","sum of gas purchased by independent customers"
"Dist087","Identify the distribution of given context: After spraying insecticide to remove an infestation of files, let X represent how many survive from a very rare strain that are resistant to the insecticide.","Normal","Exponential","Binomial","Poisson",NA,"Poisson","radio",NA,"STAT414","Poisson","",-0.35,"Dennis Pearl","rare events"
"Prob001","20% of registered voters in Pennsylvania are under 25 years old and the probability that a registered voter in that age group will vote in the next Presidential election is 30% lower than the probability for a registered voter over 25 years old. What is the probability that a random voter in the next Presidential election is under 25?","0.2","\((0.2)(0.3)\)","\(1-\frac{0.8}{0.7}\)","\(\frac{0.2}{0.2+{\frac{0.8}{0.7}}}\)",NA,"\(\frac{0.2}{0.2+{\frac{0.8}{0.7}}}\)","radio",NA,"STAT414","Bayes Theorem","",-0.66,"Dennis Pearl","Use Bayes Theorem."
