"ID","Question","Option.1","Option.2","Option.3","Option.4","Option.5","Answers","Type","Stem","Course","Topic1","Topic2","Difficulty","Author","Hint"
"Dist026","Identify the distribution of given context: When you wake up tomorrow morning you look at the digital clock next to your bed and watch it until the time changes. Let X represent how long you have to wait in minutes.","Discrete Uniform","Continuous Uniform","Exponential","Beta",NA,"Continuous Uniform","radio",NA,"STAT414","Continuous Uniform","",-0.19,"Dennis Pearl","no time within the minute you awaken is more likely than another"
"Dist030","Identify the distribution of given context: Let X represent the first number drawn (from the numbers 1 to 59) for this week's Powerball lottery.","Bernoulli","Discrete Uniform","Binomial","Geometric",NA,"Discrete Uniform","radio",NA,"STAT414","Discrete Uniform","",0.09,"Dennis Pearl","equal chances on numbers"
"Dist075","Identify the distribution of given context: Let X represent how much ice will be used on the next full Southwest Airline flight from Denver, CO to Raleigh/Durham, NC (in pounds).","Normal","Exponential","Poisson","Discrete Uniform",NA,"Normal","radio",NA,"STAT414","Normal","",-0.37,"Dennis Pearl","total used for fixed number of nearly independent  passengers"
"Prob012","The weights of bags of apples follow the normal distribution with a mean of 5 pounds and a standard deviation of 0.5 pounds. What is the probability that the maximum weight of two randomly chosen bags weighs less than 4.3 pounds?","\(\Phi(4.5)\)","\(\Phi\left(\frac{4.3-5}{0.5}\right)^2\)","\(\Phi\left(\frac{4.3-5}{0.5}\right)\)","\(1-\left(\Phi\left(\frac{4.3-5}{0.5}\right)\right)^2\)",NA,"\(\Phi\left(\frac{4.3-5}{0.5}\right)^2\)","radio",NA,"STAT414","order statistics","Normal",-0.16,"Dennis Pearl","\(\Phi\) is the cdf of the standard Normal"
