"ID","Question","Option.1","Option.2","Option.3","Option.4","Option.5","Answers","Type","Stem","Course","Topic1","Topic2","Difficulty","Author","Hint"
"Dist008","Identify the distribution of given context: A  yardstick is broken randomly into seven pieces. Let X represent the fifth break's position (in yards) from the left end.","Continuous Uniform","Exponential","Beta","Normal",NA,"Beta","radio",NA,"STAT414","Beta","",0.7,"Dennis Pearl","5th of 7"
"Dist052","Identify the distribution of given context: Let X represent how many cars pass you on the highway before one of them is silver.","Discrete Uniform","Geometric","Exponential","Bernoulli",NA,"Geometric","radio",NA,"STAT414","Geometric","",0.34,"Dennis Pearl","each passing car is another trial"
"Dist073","Identify the distribution of given context: Forty subjects taking part in an experiment on the effect of exercise on happiness record how many times they laugh during the day before and the day after taking part in an active exercise program. Assuming the program has no effect on happiness, let X represent the average difference between the recorded laughter values before and after the program.","Poisson","Exponential","Discrete Uniform","Normal",NA,"Normal","radio",NA,"STAT414","Normal","",0.5,"Dennis Pearl","with no effect expect no difference"
"Prob016","Thirty percent of the customers using a drink vending machine, purchase bottled water. What is the probability that at least one of the next ten customers buy bottled water?","\(1-(0.7)^{10}\)","\((0.3)^{10}\)","\({{10}\choose{1}}\cdot(0.3)\cdot(0.7)^9\)","\((0.7)^{10}\)",NA,"\(1-(0.7)^{10}\)","radio",NA,"STAT414","Binomial","",-0.31,"Dennis Pearl","Think about the complement event."
