"ID","Question","Option.1","Option.2","Option.3","Option.4","Option.5","Answers","Type","Stem","Course","Topic1","Topic2","Difficulty","Author","Hint"
"Dist045","Identify the distribution of given context: Let X represent how much time (in hours) until five separate people purchase a diet coke from a vending machine.","Exponential","Negative Binomial","Gamma","Poisson",NA,"Gamma","radio",NA,"STAT414","Gamma","",0.4,"Dennis Pearl","Waiting time until 5th event"
"Dist053","Identify the distribution of given context: Let X represent how many randomly chosen people you will need to select to fine one who is left-handed.","Bernoulli","Discrete Uniform","Geometric","Exponential",NA,"Geometric","radio",NA,"STAT414","Geometric","",0.13,"Dennis Pearl","tests until 1st success"
"Dist080","Identify the distribution of given context: Let X represent the total number of bushels of apples that are harvested from a group of 50 apple trees on a farm that has thousands of rows of trees.","Discrete Uniform","Normal","Poisson","Exponential",NA,"Normal","radio",NA,"STAT414","Normal","",0.73,"Dennis Pearl","sum of number of bushels"
