"ID","Question","Option.1","Option.2","Option.3","Option.4","Option.5","Answers","Type","Stem","Course","Topic1","Topic2","Difficulty","Author","Hint"
"Dist008","Identify the distribution of given context: A  yardstick is broken randomly into seven pieces. Let X represent the fifth break's position (in yards) from the left end.","Continuous Uniform","Exponential","Beta","Normal",NA,"Beta","radio",NA,"STAT414","Beta","",0.7,"Dennis Pearl","5th of 7"
"Dist020","Identify the distribution of given context: For the next 30 individual births at Hershey Medical Center, let X represent how many of the mothers have brown eyes.","Binomial","Negative Binomial","Normal","Poisson",NA,"Binomial","radio",NA,"STAT414","Binomial","",0,"Dennis Pearl","number of indiviudals out of total"
"Dist044","Identify the distribution of given context: The George Washington Bridge connecting New Jersey and New York is the busiest bridge in the world, carrying about 100 million vehicles a year.  On average, there is approximately one fatal accident per 20 million vehicles.  Let X represent the time (in years) until there are 5 more fatal accidents on the George Washington Bridge.","Negative Binomial","Poisson","Gamma","Exponential",NA,"Gamma","radio",NA,"STAT414","Gamma","",0.9,"Dennis Pearl","time to 5th rare event"
"Dist045","Identify the distribution of given context: Let X represent how much time (in hours) until five separate people purchase a diet coke from a vending machine.","Exponential","Negative Binomial","Gamma","Poisson",NA,"Gamma","radio",NA,"STAT414","Gamma","",0.4,"Dennis Pearl","Waiting time until 5th event"
"Dist051","Identify the distribution of given context: Let X represent how many people must be tested until you find someone with a B negative blood type.","Discrete Uniform","Exponential","Geometric","Bernoulli",NA,"Geometric","radio",NA,"STAT414","Geometric","",1.38,"Dennis Pearl","tests until 1st success"
"Dist064","Identify the distribution of given context: Let X represent how many randomly chosen people will it take to find 10 who are left-handed.","Binomial","Geometric","Negative Binomial","Gamma",NA,"Negative Binomial","radio",NA,"STAT414","Negative Binomial","",1.52,"Dennis Pearl","people until 10th success"
"Dist078","Identify the distribution of given context: Let X represent the average number of words on 10000 randomly selected pages from Wikipedia.","Discrete Uniform","Poisson","Exponential","Normal",NA,"Normal","radio",NA,"STAT414","Normal","",0.46,"Dennis Pearl","average of 1000 independent words"
"Prob015","There are an average of 5 fatal accidents on the George Washington Bridge in New York per year that happen independently of each other consistently throughout the year. What is the variance of the time until two more accidents occur?","\(\frac{2}{5^2}=0.08\)","\(2^2(5^2)=100\)","\(\left(\frac{2^2}{5^2}\right)=0.16\)","\(2(5^2)=50\)",NA,"\(\frac{2}{5^2}=0.08\)","radio",NA,"STAT414","Gamma","",1.1,"Dennis Pearl","Think about the type of distribution that the time until two more accidents would have."
