"ID","Question","Option.1","Option.2","Option.3","Option.4","Option.5","Answers","Type","Stem","Course","Topic1","Topic2","Difficulty","Author","Hint"
"Dist002","Identify the distribution of given context: Three horses are randomly picked from the 12 competing in a race and you place a bet on each of these three horses to win the race.  Let X represent the number of winning tickets purchased.","Discrete Uniform","Binomial","Negative Binomial","Bernoulli",NA,"Bernoulli","radio",NA,"STAT414","Bernoulli","",-0.3,"Dennis Pearl","only one winner possible"
"Prob001","20% of registered voters in Pennsylvania are under 25 years old and the probability that a registered voter in that age group will vote in the next Presidential election is 30% lower than the probability for a registered voter over 25 years old. What is the probability that a random voter in the next Presidential election is under 25?","0.2","\((0.2)(0.3)\)","\(1-\frac{0.8}{0.7}\)","\(\frac{0.2}{0.2+{\frac{0.8}{0.7}}}\)",NA,"\(\frac{0.2}{0.2+{\frac{0.8}{0.7}}}\)","radio",NA,"STAT414","Bayes Theorem","",-0.66,"Dennis Pearl","Use Bayes Theorem."
"Prob003","For a sample of seven cars that break down on the Pennsylvania turnpike, what is the variance of their minimum distance to the next mile marker?","\(7\left(\frac{1}{7}\right)\left(\frac{6}{7}\right)\)","\(\frac{(7-1)}{(7+1)^2(7+1+1)}\)","\(\left(\frac{1}{7}\right)^2\)","\(\frac{1}{12}\)",NA,"\(\frac{(7-1)}{(7+1)^2(7+1+1)}\)","radio",NA,"STAT414","iid samples -> order statistics","Beta",-0.32,"Dennis Pearl","What type of distribution is the minimum of seven uniform random variables?"
